# n   l  Freq Error Height Error Width Error Noise Error Asym Error Split Split_error Mask
 11 2 1810.32470 0.04309   81.6369 1.2711  0.2459 0.0821  36.0386 0.0353  0.0207 0.0273   0.414853   0.019393  0
 12 0 1822.18500 0.09314  360.3766 1.2711  0.3023 0.1290  36.0386 0.0353  0.0207 0.0273   0.000000   0.000000  0
 11 3 1865.21151 0.05562   23.2823 1.3541  0.0831 0.3058  39.6613 0.0341 -0.0262 0.0242   0.391937   0.007138  1
 12 1 1885.07413 0.10613  274.3274 1.3541  0.3056 0.0962  39.6613 0.0341 -0.0262 0.0242   0.383685   0.036709  0
 12 2 1945.92281 0.05835   70.0058 1.3744  0.3699 0.1342  37.8393 0.0363 -0.0402 0.0247   0.387913   0.027979  0
 13 0 1957.38343 0.11116  200.2886 1.3744  0.5092 0.1707  37.8393 0.0363 -0.0402 0.0247   0.000000   0.000000  0
 12 3 2001.33995 0.06060   22.1930 1.0455  0.1721 0.0864  36.8494 0.0284 -0.0245 0.0171   0.408682   0.020228  1
 13 1 2020.81986 0.10317  280.0015 1.0455  0.6303 0.1643  36.8494 0.0284 -0.0245 0.0171   0.370630   0.061540  0
 13 2 2082.06931 0.08200   98.7295 1.0991  0.6187 0.1509  36.8892 0.0298 -0.0074 0.0208   0.448101   0.036275  0
 14 0 2093.54888 0.09046  525.5262 1.0991  0.5121 0.1221  36.8892 0.0298 -0.0074 0.0208   0.000000   0.000000  0
 13 3 2138.33548 0.12318   16.1102 1.0610  0.6582 0.2271  35.5420 0.0299 -0.0071 0.0151   0.541121   0.040293  1
 14 1 2156.81302 0.10091  457.8524 1.0610  0.6771 0.1232  35.5420 0.0299 -0.0071 0.0151   0.491230   0.056682  0
 14 2 2217.62828 0.09398  112.4430 1.1770  0.9361 0.2276  34.2022 0.0344 -0.0214 0.0113   0.350470   0.046718  0
 15 0 2228.68477 0.07604  796.8854 1.1770  0.6195 0.1245  34.2022 0.0344 -0.0214 0.0113   0.000000   0.000000  0
 14 3 2273.90510 0.23485   13.9081 1.1874  1.2272 0.6787  33.2579 0.0357 -0.0265 0.0074   0.441900   0.076166  1
 15 1 2291.99609 0.07935  738.7634 1.1874  0.7936 0.1161  33.2579 0.0357 -0.0265 0.0074   0.451561   0.063310  0
 15 2 2352.33610 0.06582  260.3844 1.2317  0.7703 0.1398  33.4182 0.0369 -0.0200 0.0068   0.426513   0.029929  0
 16 0 2362.77805 0.07329 1035.4782 1.2317  0.8625 0.1330  33.4182 0.0369 -0.0200 0.0068   0.000000   0.000000  0
 15 3 2407.28213 0.17674   23.7110 1.3020  1.3260 0.4320  33.1633 0.0393 -0.0125 0.0049   0.309700   0.058461  1
 16 1 2425.60729 0.07221 1399.4284 1.3020  0.8763 0.1113  33.1633 0.0393 -0.0125 0.0049   0.423663   0.068982  0
 16 2 2485.82629 0.07566  395.5968 1.3542  0.9550 0.1453  32.6052 0.0415 -0.0222 0.0042   0.438665   0.039522  0
 17 0 2496.20490 0.06659 2070.2731 1.3542  0.9546 0.1207  32.6052 0.0415 -0.0222 0.0042   0.000000   0.000000  0
 16 3 2541.58745 0.15626   44.1406 0.9997  1.4357 0.2973  32.3607 0.0309 -0.0108 0.0035   0.350869   0.055799  0
 17 1 2559.04635 0.07366 1794.1857 0.9997  1.1354 0.1193  32.3607 0.0309 -0.0108 0.0035   0.394048   0.099545  0
 17 2 2619.63222 0.08333  453.9380 1.0669  1.1925 0.1552  34.4228 0.0310 -0.0110 0.0035   0.450724   0.044638  0
 18 0 2629.59796 0.06860 2657.6739 1.0669  1.0470 0.1284  34.4228 0.0310 -0.0110 0.0035   0.000000   0.000000  0
 17 3 2675.99178 0.08777   85.9738 1.1092  0.9363 0.2127  33.9975 0.0326 -0.0063 0.0022   0.388958   0.026957  0
 18 1 2693.26918 0.06512 3996.6746 1.1092  0.9567 0.0996  33.9975 0.0326 -0.0063 0.0022   0.480578   0.069583  0
 18 2 2754.24938 0.07420 1046.8161 1.1764  1.0755 0.1270  34.6266 0.0340 -0.0049 0.0019   0.412350   0.041483  0
 19 0 2764.16991 0.05469 7870.4003 1.1764  0.7967 0.1023  34.6266 0.0340 -0.0049 0.0019   0.000000   0.000000  0
 18 3 2811.39254 0.07698  145.9491 1.1412  0.9537 0.1685  32.5905 0.0350 -0.0065 0.0013   0.465059   0.024432  0
 19 1 2828.19096 0.05369 9644.1776 1.1412  0.7782 0.0806  32.5905 0.0350 -0.0065 0.0013   0.323096   0.069056  0
 19 2 2889.53518 0.06411 2051.8122 1.3153  0.9296 0.1098  37.8257 0.0348 -0.0063 0.0014   0.393378   0.035084  0
 20 0 2898.98964 0.05211 13671.6220 1.3153  0.7615 0.0934  37.8257 0.0348 -0.0063 0.0014   0.000000   0.000000  0
 19 3 2946.91397 0.07615  238.2399 1.2622  0.9140 0.1396  33.6206 0.0375 -0.0070 0.0012   0.407997   0.023555  0
 20 1 2963.26029 0.05679 11340.7595 1.2622  0.8388 0.0798  33.6206 0.0375 -0.0070 0.0012   0.472840   0.059878  0
 20 2 3024.67637 0.06045 3083.4664 1.4396  0.9168 0.1041  38.3366 0.0376 -0.0046 0.0012   0.433318   0.031629  0
 21 0 3033.79297 0.05304 17050.3639 1.4396  0.8007 0.0991  38.3366 0.0376 -0.0046 0.0012   0.000000   0.000000  0
 20 3 3082.20597 0.06964  341.4424 1.4255  0.8462 0.1270  35.7352 0.0399 -0.0055 0.0009   0.392443   0.021668  0
 21 1 3098.12917 0.05508 18212.7655 1.4255  0.8085 0.0746  35.7352 0.0399 -0.0055 0.0009   0.495203   0.055974  0
 21 2 3159.89943 0.08084 2229.1007 1.7224  1.3473 0.1421  37.1010 0.0464 -0.0031 0.0012   0.360826   0.055502  0
 22 0 3168.52908 0.05857 17436.6526 1.7224  0.9576 0.1118  37.1010 0.0464 -0.0031 0.0012   0.000000   0.000000  0
 21 3 3217.81332 0.10866  197.6645 1.6393  1.4367 0.2403  37.3160 0.0439 -0.0082 0.0012   0.440356   0.036339  0
 22 1 3233.13331 0.06554 11576.8746 1.6393  1.1796 0.1006  37.3160 0.0439 -0.0082 0.0012   0.416002   0.096734  0
 22 2 3295.01783 0.08678 2200.1627 1.8024  1.4192 0.1576  38.6248 0.0467 -0.0064 0.0014   0.400000   0.052828  0
 23 0 3303.50032 0.07914 8516.1818 1.8024  1.5780 0.1552  38.6248 0.0467 -0.0064 0.0014   0.000000   0.000000  0
 22 3 3353.52527 0.15497  131.5444 1.7231  2.1869 0.3292  33.8776 0.0509 -0.0071 0.0015   0.444729   0.060632  0
 23 1 3368.44053 0.08107 6308.7049 1.7231  1.7348 0.1390  33.8776 0.0509 -0.0071 0.0015   0.577679   0.117469  0
 23 2 3430.60443 0.11647 1007.8983 2.3296  2.2111 0.2368  35.9086 0.0649 -0.0075 0.0018   0.400000   0.094254  0
 24 0 3438.98650 0.09716 5831.9177 2.3296  2.1428 0.1915  35.9086 0.0649 -0.0075 0.0018   0.000000   0.000000  0
 23 3 3489.69102 0.25538   56.1360 2.1738  3.0835 0.5920  34.8403 0.0624 -0.0070 0.0020   0.400000   0.117936  0
 24 1 3504.04844 0.10018 3715.5097 2.1738  2.5352 0.1924  34.8403 0.0624 -0.0070 0.0020   0.400000   0.277990  0
 24 2 3566.65698 0.15824  557.1672 2.5838  3.4680 0.3448  34.0303 0.0759 -0.0087 0.0026   0.400000   0.176295  0
 25 0 3574.88238 0.13446 2717.1620 2.5838  3.0192 0.2721  34.0303 0.0759 -0.0087 0.0026   0.000000   0.000000  0
 24 3 3626.07057 0.27023   48.4477 2.5508  3.3135 0.7056  29.8208 0.0855 -0.0064 0.0029   0.400000   0.128392  0
 25 1 3640.04087 0.14164 1561.6049 2.5508  4.3178 0.3004  29.8208 0.0855 -0.0064 0.0029   0.400000   0.617620  0
 25 2 3703.19732 0.20893  330.0266 2.2458  4.5042 0.4997  40.6031 0.0553 -0.0102 0.0038   0.400000   0.290182  0
 26 0 3711.20948 0.18837 1468.8339 2.2458  4.3302 0.3885  40.6031 0.0553 -0.0102 0.0038   0.000000   0.000000  0
 25 3 3762.99627 0.53155   23.0417 2.9250  6.8262 1.3350  31.4884 0.0929 -0.0005 0.0041   0.400000   0.490588  1
 26 1 3776.50332 0.17866  954.3721 2.9250  5.5678 0.3925  31.4884 0.0929 -0.0005 0.0041   0.400000   1.183004  0
