# n   l  Freq Error Height Error Width Error Noise Error Asym Error Split Split_error Mask
 11 2 1810.35308 0.03458  123.9602 1.4233  0.2247 0.0651  25.1515 0.0566 -0.0554 0.0067   0.400159   0.016317  0
 12 0 1822.24741 0.06233  696.2850 1.4233  0.1729 0.0615  25.1515 0.0566 -0.0554 0.0067   0.000000   0.000000  0
 11 3 1865.15662 0.06840   19.1233 1.0721  0.2754 0.1342  29.2983 0.0366 -0.0306 0.0185   0.440623   0.019868  1
 12 1 1885.05898 0.09539  261.6962 1.0721  0.3432 0.0882  29.2983 0.0366 -0.0306 0.0185   0.461564   0.037357  0
 12 2 1945.92927 0.03607  169.0508 1.1852  0.2830 0.0721  26.3033 0.0451 -0.0509 0.0073   0.450344   0.020119  0
 13 0 1957.42316 0.05947  588.2902 1.1852  0.3722 0.0863  26.3033 0.0451 -0.0509 0.0073   0.000000   0.000000  0
 12 3 2001.29898 0.18556   11.3319 1.0504  0.7980 0.5414  25.4020 0.0414 -0.0417 0.0046   0.404184   0.051992  1
 13 1 2020.84217 0.05787  886.7147 1.0504  0.3133 0.0610  25.4020 0.0414 -0.0417 0.0046   0.489209   0.031740  0
 13 2 2082.13353 0.04622  231.7460 0.9580  0.4441 0.0905  25.8326 0.0371 -0.0398 0.0054   0.413403   0.021105  0
 14 0 2093.55289 0.05947  697.6188 0.9580  0.4995 0.0919  25.8326 0.0371 -0.0398 0.0054   0.000000   0.000000  0
 13 3 2137.96755 0.04118   54.0039 0.8841  0.2736 0.0864  26.7496 0.0331 -0.0331 0.0052   0.390311   0.013478  0
 14 1 2156.80013 0.06485  771.2360 0.8841  0.6240 0.0919  26.7496 0.0331 -0.0331 0.0052   0.336908   0.059721  0
 14 2 2217.66122 0.05875  282.5149 0.9212  0.6592 0.1116  26.2875 0.0350 -0.0365 0.0047   0.437428   0.030334  0
 15 0 2228.88018 0.06416 1040.8506 0.9212  0.7066 0.1146  26.2875 0.0350 -0.0365 0.0047   0.000000   0.000000  0
 14 3 2273.56529 0.05002   73.6635 1.0078  0.4670 0.1150  25.0472 0.0402 -0.0428 0.0038   0.394121   0.016194  0
 15 1 2292.26584 0.07522  933.3972 1.0078  0.8960 0.1020  25.0472 0.0402 -0.0428 0.0038   0.555952   0.068595  0
 15 2 2352.34960 0.07223  433.1546 1.0775  0.8921 0.1171  25.5238 0.0422 -0.0320 0.0041   0.397074   0.036414  0
 16 0 2362.88617 0.07747  974.0832 1.0775  1.2056 0.1641  25.5238 0.0422 -0.0320 0.0041   0.000000   0.000000  0
 15 3 2407.53615 0.16040   41.9293 1.1250  1.4619 0.2766  25.9125 0.0434 -0.0259 0.0036   0.332279   0.057521  0
 16 1 2425.71617 0.07181 1427.9756 1.1250  1.0602 0.1098  25.9125 0.0434 -0.0259 0.0036   0.364361   0.094892  0
 16 2 2485.84855 0.08118  488.1678 1.1725  1.1722 0.1445  25.4097 0.0461 -0.0194 0.0032   0.409833   0.046732  0
 17 0 2496.28394 0.06225 2656.0304 1.1725  0.8900 0.1091  25.4097 0.0461 -0.0194 0.0032   0.000000   0.000000  0
 16 3 2541.71018 0.11482   71.0008 0.8639  1.5187 0.2828  25.8689 0.0334 -0.0198 0.0023   0.375353   0.039449  0
 17 1 2559.33340 0.06433 2857.3130 0.8639  0.9263 0.0909  25.8689 0.0334 -0.0198 0.0023   0.410535   0.075123  0
 17 2 2619.84573 0.07694  873.8205 0.9276  1.1496 0.1318  29.0402 0.0319 -0.0171 0.0022   0.385926   0.044796  0
 18 0 2629.76363 0.05942 4654.9532 0.9276  0.8702 0.1032  29.0402 0.0319 -0.0171 0.0022   0.000000   0.000000  0
 17 3 2676.22387 0.08798  169.7591 0.8977  1.1588 0.1595  25.6549 0.0350 -0.0115 0.0018   0.353177   0.030807  0
 18 1 2693.45301 0.06411 4103.3205 0.8977  0.9801 0.0910  25.6549 0.0350 -0.0115 0.0018   0.510916   0.071007  0
 18 2 2754.67292 0.05917 1781.0361 1.0686  0.8757 0.1089  31.8415 0.0336 -0.0111 0.0018   0.395935   0.033660  0
 19 0 2764.25948 0.06129 5712.1943 1.0686  0.9677 0.1167  31.8415 0.0336 -0.0111 0.0018   0.000000   0.000000  0
 18 3 2811.53370 0.08501  211.0530 1.0906  1.0877 0.1582  29.7151 0.0367 -0.0105 0.0015   0.390976   0.028725  0
 19 1 2828.34505 0.06213 6512.6380 1.0906  0.9724 0.0880  29.7151 0.0367 -0.0105 0.0015   0.472324   0.072633  0
 19 2 2889.78855 0.08254 1564.7926 1.3083  1.3643 0.1455  35.2156 0.0371 -0.0099 0.0017   0.407249   0.053093  0
 20 0 2899.15685 0.06185 7677.9799 1.3083  0.9628 0.1145  35.2156 0.0371 -0.0099 0.0017   0.000000   0.000000  0
 19 3 2947.36994 0.07296  433.2804 1.2479  1.0807 0.1432  28.9597 0.0431 -0.0087 0.0011   0.449227   0.024126  0
 20 1 2963.62911 0.05877 10525.8030 1.2479  0.9687 0.0844  28.9597 0.0431 -0.0087 0.0011   0.403660   0.078582  0
 20 2 3025.05077 0.07042 2976.1067 1.6037  1.1155 0.1248  39.4333 0.0407 -0.0093 0.0013   0.401352   0.041659  0
 21 0 3033.93761 0.05551 14719.7376 1.6037  0.8388 0.0974  39.4333 0.0407 -0.0093 0.0013   0.000000   0.000000  0
 20 3 3082.76907 0.06834  565.7536 1.4305  0.9681 0.1354  32.4055 0.0441 -0.0103 0.0011   0.420778   0.023121  0
 21 1 3098.55992 0.06307 10038.2995 1.4305  1.1474 0.0977  32.4055 0.0441 -0.0103 0.0011   0.262477   0.123098  0
 21 2 3160.32063 0.08994 1737.3282 1.7474  1.6670 0.1792  35.2328 0.0496 -0.0113 0.0016   0.281902   0.083597  0
 22 0 3168.94895 0.07273 8024.7432 1.7474  1.3040 0.1337  35.2328 0.0496 -0.0113 0.0016   0.000000   0.000000  0
 21 3 3218.18528 0.11400  282.4993 1.5454  1.8794 0.2366  31.0211 0.0498 -0.0109 0.0013   0.413524   0.043170  0
 22 1 3233.58385 0.07178 7444.9966 1.5454  1.4642 0.1177  31.0211 0.0498 -0.0109 0.0013   0.299924   0.155913  0
 22 2 3295.44541 0.09427 1845.3786 2.0067  1.7411 0.1772  40.1007 0.0500 -0.0062 0.0015   0.400000   0.064834  0
 23 0 3303.90759 0.06916 10710.6607 2.0067  1.2047 0.1286  40.1007 0.0500 -0.0062 0.0015   0.000000   0.000000  0
 22 3 3353.63419 0.15109  156.6030 1.6634  2.5267 0.3030  32.1668 0.0517 -0.0114 0.0018   0.281086   0.090576  0
 23 1 3368.79707 0.09052 4038.8313 1.6634  2.1355 0.1569  32.1668 0.0517 -0.0114 0.0018   0.470599   0.192288  0
 23 2 3431.49277 0.13926  730.9025 2.2926  2.8574 0.3051  41.0602 0.0558 -0.0176 0.0023   0.400000   0.144356  0
 24 0 3439.35166 0.09978 4799.9582 2.2926  2.0272 0.1822  41.0602 0.0558 -0.0176 0.0023   0.000000   0.000000  0
 23 3 3489.94433 0.19302  105.0285 1.9127  3.2813 0.4363  27.4255 0.0697 -0.0140 0.0021   0.400000   0.100053  0
 24 1 3504.63970 0.10633 2769.0756 1.9127  2.8170 0.1992  27.4255 0.0697 -0.0140 0.0021   0.400000   0.516704  0
 24 2 3567.20184 0.16894  445.0247 2.0968  3.7166 0.3798  38.3944 0.0546 -0.0145 0.0031   0.400000   0.205355  0
 25 0 3575.24431 0.13842 2205.5098 2.0968  2.9615 0.2766  38.3944 0.0546 -0.0145 0.0031   0.000000   0.000000  0
 24 3 3626.42067 0.23255   72.0271 2.1590  3.5532 0.5630  28.1560 0.0767 -0.0162 0.0028   0.400000   0.116420  0
 25 1 3640.66690 0.13574 1444.5034 2.1590  4.0193 0.2765  28.1560 0.0767 -0.0162 0.0028   0.400000   0.651385  0
 25 2 3703.80385 0.27487  218.4335 2.3483  7.1502 0.5957  26.0221 0.0902 -0.0067 0.0043   0.400000   0.663655  0
 26 0 3711.56129 0.26702  756.0138 2.3483  5.0782 0.5350  26.0221 0.0902 -0.0067 0.0043   0.000000   0.000000  0
 25 3 3762.68099 0.39139   32.1022 2.2496  6.7332 1.0213  22.5202 0.0999 -0.0183 0.0043   0.400000   0.321994  0
 26 1 3777.32066 0.18739  683.2921 2.2496  5.9935 0.3987  22.5202 0.0999 -0.0183 0.0043   0.400000   1.582040  0
