# n   l  Freq Error Height Error Width Error Noise Error Asym Error Split Split_error Mask
 11 2 1810.32323 0.11437   49.0138 2.8056  0.3393 0.2015  80.5897 0.0348  0.0683 0.0345   0.449050   0.199431  1
 12 0 1822.13482 0.15573  276.4598 2.8056  0.1919 0.1027  80.5897 0.0348  0.0683 0.0345   0.000000   0.000000  0
 11 3 1865.31616 0.09542   24.2809 3.1810  0.0576 0.0680  79.2475 0.0401  0.0613 0.0193   0.364913   0.006866  1
 12 1 1885.04030 0.15943  427.8580 3.1810  0.1197 0.0576  79.2475 0.0401  0.0613 0.0193   0.443003   0.025060  1
 12 2 1945.83207 0.04400  121.5784 2.4964  0.1646 0.0724  76.9736 0.0324  0.0200 0.0390   0.378800   0.016547  0
 13 0 1957.28567 0.12652  719.8252 2.4964  0.1078 0.0576  76.9736 0.0324  0.0200 0.0390   0.000000   0.000000  1
 12 3 2002.36341 0.10300   22.5111 2.1273  0.2037 0.1663  79.7894 0.0267 -0.0034 0.0424   0.431942   0.029467  1
 13 1 2020.73018 0.15061  313.8308 2.1273  0.5523 0.1663  79.7894 0.0267 -0.0034 0.0424   0.418626   0.065052  0
 13 2 2082.04880 0.05588  159.0462 2.2500  0.3513 0.1077  76.5303 0.0294 -0.0421 0.0187   0.380544   0.023692  0
 14 0 2093.49765 0.11429  398.1671 2.2500  0.6758 0.1908  76.5303 0.0294 -0.0421 0.0187   0.000000   0.000000  0
 13 3 2137.74703 0.07968   35.9097 2.2042  0.1636 0.2387  80.6325 0.0273  0.0155 0.0256   0.393799   0.013680  1
 14 1 2156.73821 0.11898  668.1484 2.2042  0.4610 0.1096  80.6325 0.0273  0.0155 0.0256   0.475323   0.045489  0
 14 2 2217.74544 0.06336  217.1703 2.4524  0.4702 0.1192  78.7503 0.0311 -0.0257 0.0191   0.430734   0.028163  0
 15 0 2228.72783 0.11676  551.5480 2.4524  0.9450 0.2223  78.7503 0.0311 -0.0257 0.0191   0.000000   0.000000  0
 14 3 2273.79672 0.12606   24.1893 2.2515  0.5764 0.3171  76.7329 0.0293 -0.0240 0.0149   0.323545   0.037459  1
 15 1 2291.96673 0.10491  715.5190 2.2515  0.8153 0.1454  76.7329 0.0293 -0.0240 0.0149   0.471987   0.072543  0
 15 2 2352.32447 0.11873  132.0578 2.8974  1.0934 0.3864  78.3201 0.0370 -0.0245 0.0166   0.328484   0.056843  0
 16 0 2362.87150 0.10719  813.0506 2.8974  1.0225 0.2033  78.3201 0.0370 -0.0245 0.0166   0.000000   0.000000  0
 15 3 2407.88693 0.07827   45.4740 2.4838  0.2876 0.1405  80.0624 0.0310 -0.0201 0.0091   0.417742   0.023565  1
 16 1 2425.53566 0.09017 1395.8090 2.4838  0.8675 0.1327  80.0624 0.0310 -0.0201 0.0091   0.490897   0.068168  0
 16 2 2486.16441 0.07184  501.6562 2.7078  0.7691 0.1285  72.1816 0.0375 -0.0333 0.0068   0.453641   0.032521  0
 17 0 2496.15795 0.08209 1766.7792 2.7078  1.0302 0.1528  72.1816 0.0375 -0.0333 0.0068   0.000000   0.000000  0
 16 3 2541.21796 0.10564   60.0570 1.9926  0.6392 0.2493  75.8652 0.0263 -0.0159 0.0054   0.419875   0.035392  1
 17 1 2559.23733 0.07728 2644.2788 1.9926  0.8571 0.1052  75.8652 0.0263 -0.0159 0.0054   0.545379   0.062074  0
 17 2 2619.51777 0.07832  881.6596 2.0805  0.9511 0.1289  74.5486 0.0279 -0.0051 0.0049   0.354089   0.042864  0
 18 0 2629.61242 0.06708 4271.6277 2.0805  0.8103 0.1167  74.5486 0.0279 -0.0051 0.0049   0.000000   0.000000  0
 17 3 2676.12912 0.12571   84.1177 2.1319  1.0718 0.2600  73.6809 0.0289 -0.0115 0.0034   0.431712   0.036830  0
 18 1 2693.35050 0.06601 4635.6913 2.1319  0.9178 0.1049  73.6809 0.0289 -0.0115 0.0034   0.277838   0.100875  0
 18 2 2754.47980 0.07171 1139.0006 2.3756  0.9370 0.1320  74.3589 0.0319 -0.0139 0.0035   0.422792   0.037646  0
 19 0 2764.17675 0.06620 5801.3545 2.3756  0.9418 0.1202  74.3589 0.0319 -0.0139 0.0035   0.000000   0.000000  0
 18 3 2811.32715 0.11988  121.4610 2.2424  1.1407 0.2642  74.1596 0.0302 -0.0087 0.0021   0.374851   0.038109  0
 19 1 2828.08584 0.05501 11415.5041 2.2424  0.6510 0.0747  74.1596 0.0302 -0.0087 0.0021   0.411170   0.050038  0
 19 2 2889.54342 0.07134 1679.6222 2.5674  1.0436 0.1334  74.9306 0.0343 -0.0057 0.0027   0.444159   0.038343  0
 20 0 2898.98901 0.06113 8982.6140 2.5674  0.8670 0.1150  74.9306 0.0343 -0.0057 0.0027   0.000000   0.000000  0
 19 3 2946.92944 0.08728  241.2956 2.4243  0.9438 0.1760  75.8392 0.0320 -0.0046 0.0020   0.397122   0.027564  0
 20 1 2963.26776 0.05891 12145.4452 2.4243  0.8104 0.0907  75.8392 0.0320 -0.0046 0.0020   0.388514   0.063887  0
 20 2 3024.82309 0.05052 3569.4483 2.6422  0.6868 0.0889  84.4889 0.0313 -0.0089 0.0019   0.470509   0.024314  0
 21 0 3033.70990 0.05588 17604.4098 2.6422  0.7866 0.1027  84.4889 0.0313 -0.0089 0.0019   0.000000   0.000000  0
 20 3 3082.26195 0.06585  379.9343 2.6336  0.6831 0.1229  81.2414 0.0324 -0.0070 0.0020   0.451499   0.020958  0
 21 1 3098.13360 0.06742 10518.5700 2.6336  1.0395 0.1012  81.2414 0.0324 -0.0070 0.0020   0.556679   0.071284  0
 21 2 3159.84189 0.08345 2088.8382 3.1084  1.3342 0.1564  81.7681 0.0380 -0.0056 0.0021   0.262486   0.068907  0
 22 0 3168.50300 0.06672 13521.3911 3.1084  1.0933 0.1272  81.7681 0.0380 -0.0056 0.0021   0.000000   0.000000  0
 21 3 3217.66375 0.10792  207.9975 2.9435  1.2606 0.2923  78.2858 0.0376 -0.0094 0.0023   0.393397   0.035158  0
 22 1 3233.11421 0.08118 7053.8567 2.9435  1.5710 0.1412  78.2858 0.0376 -0.0094 0.0023   0.409189   0.139494  0
 22 2 3295.02134 0.11039 1435.8444 3.2288  1.9518 0.2094  74.6593 0.0432 -0.0098 0.0024   0.400000   0.084770  0
 23 0 3303.57790 0.08069 9035.3830 3.2288  1.4461 0.1539  74.6593 0.0432 -0.0098 0.0024   0.000000   0.000000  0
 22 3 3353.28242 0.17986  110.8776 3.0152  1.8843 0.3976  80.6225 0.0374 -0.0042 0.0023   0.414955   0.064477  0
 23 1 3368.31697 0.08040 7674.6981 3.0152  1.5802 0.1451  80.6225 0.0374 -0.0042 0.0023   0.350245   0.163849  0
 23 2 3430.66733 0.12862  970.1816 3.4182  2.4277 0.2572  70.9733 0.0482 -0.0048 0.0028   0.400000   0.115660  0
 24 0 3438.83255 0.10504 5217.6110 3.4182  2.1234 0.2149  70.9733 0.0482 -0.0048 0.0028   0.000000   0.000000  0
 23 3 3489.51171 0.30883   58.8474 3.4018  4.0353 0.7550  69.5853 0.0489 -0.0085 0.0034   0.400000   0.176232  1
 24 1 3504.12290 0.11329 3088.8065 3.4018  2.7707 0.2196  69.5853 0.0489 -0.0085 0.0034   0.400000   0.461896  0
 24 2 3566.60527 0.20253  411.6118 4.2332  4.0636 0.4680  75.7631 0.0559 -0.0116 0.0046   0.400000   0.259632  0
 25 0 3574.52663 0.17046 2195.2345 4.2332  3.6630 0.3476  75.7631 0.0559 -0.0116 0.0046   0.000000   0.000000  0
 24 3 3625.58155 0.42935   30.2245 3.7554  3.5659 1.1613  78.6120 0.0478 -0.0111 0.0050   0.400000   0.207551  1
 25 1 3640.54333 0.15021 1642.2638 3.7554  3.9094 0.3023  78.6120 0.0478 -0.0111 0.0050   0.400000   0.729840  0
 25 2 3703.60387 0.25734  279.0693 3.6906  5.3126 0.5996  79.4415 0.0465 -0.0112 0.0057   0.400000   0.511457  0
 26 0 3711.43245 0.21037 1429.3897 3.6906  4.2718 0.4510  79.4415 0.0465 -0.0112 0.0057   0.000000   0.000000  0
 25 3 3763.20737 0.51300   27.9249 4.0933  4.9194 1.4255  77.1815 0.0530 -0.0145 0.0061   0.400000   0.311889  1
 26 1 3777.04146 0.18289 1050.8539 4.0933  4.9346 0.3857  77.1815 0.0530 -0.0145 0.0061   0.400000   1.076962  0
