# n   l  Freq Error Height Error Width Error Noise Error Asym Error Split Split_error Mask
 11 2 1810.70755 0.04463  105.8527 2.4384  0.0817 0.0693  76.6854 0.0318 -0.0301 0.0336   0.370628   0.009494  0
 12 0 1822.23238 0.15789  570.5398 2.4384  0.0686 0.0679  76.6854 0.0318 -0.0301 0.0336   0.000000   0.000000  1
 11 3 1862.98807 0.10350   27.2842 2.7703  0.0666 0.0841  75.5034 0.0367  0.0624 0.0228   0.341264   0.020421  1
 12 1 1885.03749 0.12338  321.8088 2.7703  0.2634 0.0902  75.5034 0.0367  0.0624 0.0228   0.417213   0.040958  0
 12 2 1945.87254 0.04612  125.8565 2.8708  0.1993 0.0945  70.1675 0.0409  0.0258 0.0423   0.379999   0.017623  0
 13 0 1957.28987 0.18107  185.7476 2.8708  0.6901 0.5142  70.1675 0.0409  0.0258 0.0423   0.000000   0.000000  0
 12 3 2001.17735 0.09978   25.2458 1.9336  0.2071 0.9279  79.2025 0.0244  0.0246 0.0259   0.306261   0.023041  1
 13 1 2020.76453 0.10525  510.0673 1.9336  0.4637 0.1247  79.2025 0.0244  0.0246 0.0259   0.318940   0.054464  0
 13 2 2082.04511 0.05005  144.1762 2.1646  0.2664 0.0979  79.0195 0.0274 -0.0414 0.0200   0.362065   0.019872  0
 14 0 2093.61398 0.11408  433.3452 2.1646  0.6890 0.1856  79.0195 0.0274 -0.0414 0.0200   0.000000   0.000000  0
 13 3 2137.59245 0.20996   14.9105 2.1275  0.5783 0.5370  75.5944 0.0281  0.0191 0.0244   0.423185   0.061553  1
 14 1 2156.71125 0.11675  624.9430 2.1275  0.5003 0.1140  75.5944 0.0281  0.0191 0.0244   0.449851   0.049343  0
 14 2 2217.68984 0.05848  235.6627 2.3094  0.4391 0.1033  77.1485 0.0299 -0.0215 0.0175   0.427723   0.024640  0
 15 0 2228.75540 0.09342  861.7922 2.3094  0.5840 0.1600  77.1485 0.0299 -0.0215 0.0175   0.000000   0.000000  0
 14 3 2273.41111 0.17872   25.6665 2.2873  0.6648 0.4020  74.4746 0.0307 -0.0265 0.0177   0.385665   0.044124  1
 15 1 2291.99836 0.12529  464.4716 2.2873  1.0216 0.1969  74.4746 0.0307 -0.0265 0.0177   0.548662   0.088742  0
 15 2 2352.12733 0.10474  182.8315 2.3296  0.8291 0.2090  75.8379 0.0307 -0.0294 0.0131   0.400110   0.049960  0
 16 0 2362.84376 0.08915 1200.2066 2.3296  0.7813 0.1601  75.8379 0.0307 -0.0294 0.0131   0.000000   0.000000  0
 15 3 2407.56704 0.11069   36.5493 2.3803  0.4239 0.2127  75.3138 0.0316 -0.0252 0.0082   0.322096   0.029327  1
 16 1 2425.71117 0.08530 1323.9008 2.3803  0.9337 0.1313  75.3138 0.0316 -0.0252 0.0082   0.366869   0.088971  0
 16 2 2486.11212 0.08570  415.5368 2.3056  1.0006 0.1679  70.1643 0.0329 -0.0229 0.0079   0.473281   0.039615  0
 17 0 2496.11955 0.08621 1671.5334 2.3056  1.0783 0.1614  70.1643 0.0329 -0.0229 0.0079   0.000000   0.000000  0
 16 3 2541.44626 0.16561   56.4685 1.8658  0.9570 0.2614  68.7107 0.0272 -0.0128 0.0054   0.384689   0.050172  1
 17 1 2559.32794 0.08026 2268.5002 1.8658  0.9788 0.1190  68.7107 0.0272 -0.0128 0.0054   0.472829   0.075140  0
 17 2 2619.55157 0.07817  916.6133 2.0211  0.9304 0.1239  70.9710 0.0285 -0.0073 0.0048   0.344642   0.041306  0
 18 0 2629.59480 0.07140 3327.6529 2.0211  0.9429 0.1307  70.9710 0.0285 -0.0073 0.0048   0.000000   0.000000  0
 17 3 2676.14743 0.14647   82.7318 2.0423  1.2275 0.2741  69.6897 0.0293 -0.0125 0.0042   0.394385   0.044536  0
 18 1 2693.39999 0.07669 3034.1556 2.0423  1.1564 0.1291  69.6897 0.0293 -0.0125 0.0042   0.262846   0.139332  0
 18 2 2754.54228 0.08656  794.3171 2.1094  1.1600 0.1572  71.0070 0.0297 -0.0143 0.0035   0.396943   0.048790  0
 19 0 2764.27697 0.06327 6821.6814 2.1094  0.8537 0.1097  71.0070 0.0297 -0.0143 0.0035   0.000000   0.000000  0
 18 3 2811.57256 0.12035  119.6378 2.2019  1.0875 0.2538  71.0088 0.0310 -0.0061 0.0023   0.392999   0.039797  0
 19 1 2828.08357 0.06106 9066.9757 2.2019  0.8079 0.0921  71.0088 0.0310 -0.0061 0.0023   0.446103   0.058820  0
 19 2 2889.56053 0.07037 1751.7409 2.5743  0.9416 0.1161  76.3631 0.0337 -0.0054 0.0027   0.463383   0.033944  0
 20 0 2898.98309 0.06381 8159.5719 2.5743  0.9514 0.1206  76.3631 0.0337 -0.0054 0.0027   0.000000   0.000000  0
 19 3 2946.82946 0.09267  221.2074 2.3878  1.0407 0.1934  74.5057 0.0320 -0.0007 0.0019   0.416958   0.030612  0
 20 1 2963.28473 0.05768 13344.9346 2.3878  0.7660 0.0875  74.5057 0.0320 -0.0007 0.0019   0.427869   0.058444  0
 20 2 3024.82098 0.05506 3617.5539 2.4973  0.7321 0.0917  79.0440 0.0316 -0.0073 0.0019   0.423289   0.026976  0
 21 0 3033.81624 0.05825 14067.9998 2.4973  0.8576 0.1094  79.0440 0.0316 -0.0073 0.0019   0.000000   0.000000  0
 20 3 3082.39448 0.06411  406.1194 2.5863  0.6599 0.1154  74.0476 0.0349 -0.0086 0.0020   0.444614   0.019371  0
 21 1 3098.08140 0.07281 8507.9857 2.5863  1.2624 0.1183  74.0476 0.0349 -0.0086 0.0020   0.487370   0.092711  0
 21 2 3159.92997 0.07642 2742.0768 3.0779  1.0930 0.1321  80.1579 0.0384 -0.0056 0.0019   0.411400   0.045355  0
 22 0 3168.62812 0.06481 14635.2330 3.0779  1.0685 0.1234  80.1579 0.0384 -0.0056 0.0019   0.000000   0.000000  0
 21 3 3217.85050 0.09339  289.6678 2.7596  1.0087 0.1811  77.0169 0.0358 -0.0106 0.0022   0.466688   0.029131  0
 22 1 3233.05951 0.07674 7487.2095 2.7596  1.4657 0.1353  77.0169 0.0358 -0.0106 0.0022   0.262443   0.169909  0
 22 2 3295.04969 0.10485 1602.4994 3.2586  1.7547 0.2060  68.1464 0.0478 -0.0109 0.0022   0.400000   0.070574  0
 23 0 3303.49297 0.08505 8187.8184 3.2586  1.6638 0.1662  68.1464 0.0478 -0.0109 0.0022   0.000000   0.000000  0
 22 3 3353.36276 0.19548   87.2454 2.8667  2.4446 0.4939  73.8713 0.0388 -0.0041 0.0021   0.324391   0.089709  0
 23 1 3368.50044 0.07848 8136.4096 2.8667  1.4574 0.1346  73.8713 0.0388 -0.0041 0.0021   0.505823   0.105684  0
 23 2 3430.68268 0.13729  819.5680 3.5653  2.6515 0.2858  70.3805 0.0507 -0.0066 0.0028   0.400000   0.133133  0
 24 0 3438.93611 0.10315 5625.0606 3.5653  2.1066 0.2079  70.3805 0.0507 -0.0066 0.0028   0.000000   0.000000  0
 23 3 3489.69218 0.29873   57.3583 3.5726  3.1290 0.7382  74.7723 0.0478 -0.0104 0.0037   0.400000   0.139447  1
 24 1 3504.10487 0.12063 2674.5799 3.5726  2.9748 0.2366  74.7723 0.0478 -0.0104 0.0037   0.400000   0.284868  0
 24 2 3567.08870 0.22726  348.1871 3.9557  4.7242 0.4979  68.6057 0.0577 -0.0140 0.0048   0.400000   0.455011  0
 25 0 3574.88400 0.18078 1827.0457 3.9557  3.7201 0.3649  68.6057 0.0577 -0.0140 0.0048   0.000000   0.000000  0
 24 3 3626.12385 0.47600   27.1269 3.7042  4.5475 1.4763  71.2703 0.0520 -0.0121 0.0043   0.400000   0.263335  1
 25 1 3640.51409 0.13979 1910.2042 3.7042  3.6617 0.2824  71.2703 0.0520 -0.0121 0.0043   0.400000   0.430347  0
 25 2 3703.27202 0.28467  234.6806 4.7554  5.9943 0.6749  73.8368 0.0644 -0.0061 0.0054   0.400000   0.441022  0
 26 0 3711.00763 0.18941 1723.9352 4.7554  3.8741 0.4106  73.8368 0.0644 -0.0061 0.0054   0.000000   0.000000  0
 25 3 3762.45848 0.48466   27.5396 4.0711  4.3520 1.4804  73.5895 0.0553 -0.0128 0.0064   0.400000   0.255937  1
 26 1 3777.02879 0.19537  948.1134 4.0711  5.4212 0.4125  73.5895 0.0553 -0.0128 0.0064   0.400000   7.471428  0
