# n   l  Freq Error Height Error Width Error Noise Error Asym Error Split Split_error Mask
 11 2 1810.34323 0.06952   51.9592 1.3020  0.3371 0.1253  36.6724 0.0355 -0.0410 0.0332   0.376714   0.032759  0
 12 0 1822.08535 0.14761  128.9068 1.3020  0.5777 0.2004  36.6724 0.0355 -0.0410 0.0332   0.000000   0.000000  0
 11 3 1865.11820 0.08740   11.1124 1.2817  0.1612 0.1694  37.4682 0.0342 -0.0279 0.0254   0.452791   0.025439  1
 12 1 1885.03668 0.10512  268.9884 1.2817  0.2478 0.0836  37.4682 0.0342 -0.0279 0.0254   0.363776   0.032553  0
 12 2 1945.87357 0.05932   74.7335 1.2482  0.4194 0.1503  33.6829 0.0371  0.0412 0.0161   0.426286   0.030373  0
 13 0 1957.31847 0.07991  437.8016 1.2482  0.2859 0.0933  33.6829 0.0371  0.0412 0.0161   0.000000   0.000000  0
 12 3 2001.44836 0.09199   11.9061 0.9838  0.2433 0.2214  33.3772 0.0295 -0.0498 0.0117   0.415560   0.030032  1
 13 1 2020.77738 0.08751  279.3403 0.9838  0.4791 0.1218  33.3772 0.0295 -0.0498 0.0117   0.369126   0.050621  0
 13 2 2082.04188 0.09466   89.2644 0.9893  0.7096 0.1711  32.6093 0.0303 -0.0170 0.0164   0.395167   0.040247  0
 14 0 2093.58261 0.08080  565.7769 0.9893  0.5128 0.1129  32.6093 0.0303 -0.0170 0.0164   0.000000   0.000000  0
 13 3 2137.50262 0.07548   19.2070 0.9650  0.2792 0.1292  34.0341 0.0284 -0.0245 0.0115   0.337426   0.024298  1
 14 1 2156.80802 0.08057  508.2951 0.9650  0.5283 0.0969  34.0341 0.0284 -0.0245 0.0115   0.411357   0.048608  0
 14 2 2217.71939 0.09282  105.9123 1.1256  0.8242 0.2001  32.8234 0.0343 -0.0344 0.0093   0.335685   0.048602  0
 15 0 2228.83724 0.07413  739.9038 1.1256  0.6891 0.1221  32.8234 0.0343 -0.0344 0.0093   0.000000   0.000000  0
 14 3 2273.27404 0.19169   19.9637 1.1567  1.2274 0.4501  32.5474 0.0355 -0.0074 0.0090   0.488871   0.055192  1
 15 1 2291.95301 0.08372  732.8615 1.1567  0.7303 0.1194  32.5474 0.0355 -0.0074 0.0090   0.423506   0.058961  0
 15 2 2352.09889 0.08555  226.4923 1.2514  0.9045 0.1536  33.1956 0.0377 -0.0199 0.0075   0.453426   0.044408  0
 16 0 2362.89693 0.08514  765.5373 1.2514  1.1492 0.1716  33.1956 0.0377 -0.0199 0.0075   0.000000   0.000000  0
 15 3 2407.55111 0.06221   45.2798 1.1644  0.4530 0.1369  31.8754 0.0365 -0.0181 0.0049   0.412291   0.019957  0
 16 1 2425.69701 0.07705 1071.9760 1.1644  1.1067 0.1326  31.8754 0.0365 -0.0181 0.0049   0.262553   0.136767  0
 16 2 2485.78918 0.07968  399.2152 1.1524  1.0416 0.1414  31.0496 0.0371 -0.0137 0.0041   0.374517   0.045302  0
 17 0 2496.18785 0.06443 2375.4527 1.1524  0.8569 0.1176  31.0496 0.0371 -0.0137 0.0041   0.000000   0.000000  0
 16 3 2541.47864 0.10564   48.6503 0.9651  1.0562 0.2640  31.5356 0.0306 -0.0073 0.0033   0.423559   0.032015  0
 17 1 2559.04503 0.06733 2033.5092 0.9651  0.9853 0.1164  31.5356 0.0306 -0.0073 0.0033   0.262440   0.098167  0
 17 2 2619.58014 0.07347  701.3419 1.0684  1.0442 0.1281  32.2909 0.0331 -0.0068 0.0027   0.393804   0.040626  0
 18 0 2629.68584 0.05669 4517.3917 1.0684  0.7533 0.1037  32.2909 0.0331 -0.0068 0.0027   0.000000   0.000000  0
 17 3 2676.22688 0.08473  106.6776 1.0275  0.8978 0.1730  32.0605 0.0320 -0.0085 0.0021   0.390643   0.026599  0
 18 1 2693.42818 0.06289 4222.6059 1.0275  0.8895 0.0932  32.0605 0.0320 -0.0085 0.0021   0.482119   0.063886  0
 18 2 2754.41106 0.07880  873.3779 1.1398  1.2230 0.1395  31.6083 0.0361 -0.0044 0.0021   0.420194   0.045044  0
 19 0 2764.05435 0.06036 5832.7646 1.1398  0.9283 0.1171  31.6083 0.0361 -0.0044 0.0021   0.000000   0.000000  0
 18 3 2811.35439 0.08071  175.0972 1.1382  1.0383 0.1669  32.2959 0.0352 -0.0057 0.0015   0.384160   0.026191  0
 19 1 2828.14691 0.05624 7460.5722 1.1382  0.8249 0.0878  32.2959 0.0352 -0.0057 0.0015   0.369787   0.068346  0
 19 2 2889.47979 0.07612 1249.0102 1.3262  1.2183 0.1396  35.1547 0.0377 -0.0055 0.0014   0.435586   0.044364  0
 20 0 2899.02141 0.04884 16462.7880 1.3262  0.6555 0.0870  35.1547 0.0377 -0.0055 0.0014   0.000000   0.000000  0
 19 3 2946.94533 0.08381  233.6146 1.2817  1.0370 0.1576  33.0184 0.0388 -0.0052 0.0012   0.383592   0.028154  0
 20 1 2963.30241 0.05686 10083.3656 1.2817  0.9331 0.0936  33.0184 0.0388 -0.0052 0.0012   0.272637   0.102005  0
 20 2 3024.76669 0.05780 3460.5468 1.5500  0.8264 0.0972  37.1079 0.0418 -0.0053 0.0011   0.483663   0.030867  0
 21 0 3033.65549 0.05514 15687.9329 1.5500  0.8739 0.1028  37.1079 0.0418 -0.0053 0.0011   0.000000   0.000000  0
 20 3 3082.35312 0.08065  257.8534 1.4362  0.9761 0.1613  34.2590 0.0419 -0.0060 0.0011   0.405818   0.026137  0
 21 1 3098.16291 0.06070 10888.5582 1.4362  1.0840 0.1000  34.2590 0.0419 -0.0060 0.0011   0.262499   0.116806  0
 21 2 3159.78966 0.07996 2234.4306 1.6723  1.3269 0.1431  37.1206 0.0451 -0.0045 0.0011   0.452169   0.050781  0
 22 0 3168.59880 0.05325 23621.7112 1.6723  0.8131 0.0970  37.1206 0.0451 -0.0045 0.0011   0.000000   0.000000  0
 21 3 3217.71518 0.07454  379.7144 1.5939  0.9025 0.1301  33.7066 0.0473 -0.0068 0.0012   0.400541   0.023576  0
 22 1 3233.02872 0.07433 8262.6965 1.5939  1.4810 0.1247  33.7066 0.0473 -0.0068 0.0012   0.585638   0.099133  0
 22 2 3295.11159 0.09223 1514.6925 1.9061  1.6594 0.1754  40.5329 0.0470 -0.0052 0.0015   0.400000   0.068307  0
 23 0 3303.46943 0.07000 11405.6418 1.9061  1.2546 0.1333  40.5329 0.0470 -0.0052 0.0015   0.000000   0.000000  0
 22 3 3353.74895 0.16522  114.3120 1.7248  2.0623 0.3437  34.4281 0.0501 -0.0104 0.0015   0.407947   0.063901  0
 23 1 3368.52197 0.08315 6203.0941 1.7248  1.8253 0.1345  34.4281 0.0501 -0.0104 0.0015   0.585626   0.136268  0
 23 2 3430.58932 0.12298  922.7863 1.9315  2.6037 0.2544  38.2552 0.0505 -0.0070 0.0020   0.400000   0.130080  0
 24 0 3439.00496 0.10686 4283.8889 1.9315  2.2650 0.2112  38.2552 0.0505 -0.0070 0.0020   0.000000   0.000000  0
 23 3 3489.70510 0.15726   97.6060 2.2455  1.8702 0.4202  34.7901 0.0645 -0.0077 0.0018   0.400000   0.055570  0
 24 1 3504.11380 0.09636 4126.3532 2.2455  2.4155 0.1857  34.7901 0.0645 -0.0077 0.0018   0.400000   0.215217  0
 24 2 3566.85613 0.18283  432.3686 2.7380  4.3087 0.4051  30.3555 0.0902 -0.0069 0.0025   0.400000   0.239472  0
 25 0 3574.82938 0.13228 2956.2143 2.7380  2.8963 0.2645  30.3555 0.0902 -0.0069 0.0025   0.000000   0.000000  0
 24 3 3627.65624 0.46691   29.2401 2.6623  5.6160 1.0826  35.6783 0.0746 -0.0094 0.0031   0.400000   0.437073  1
 25 1 3640.22430 0.13152 1852.2082 2.6623  3.6432 0.2646  35.6783 0.0746 -0.0094 0.0031   0.400000   0.354771  0
 25 2 3703.10367 0.23211  261.9808 2.7930  5.2541 0.5211  31.0522 0.0899 -0.0061 0.0034   0.400000   0.474499  0
 26 0 3711.09023 0.17087 1820.2783 2.7930  4.0072 0.3529  31.0522 0.0899 -0.0061 0.0034   0.000000   0.000000  0
 25 3 3777.28564 0.46688  102.4647 1.8772  4.5814 1.1986  23.3430 0.0804 -0.0154 0.0050   0.400000   0.197564  0
 26 1 3775.32197 0.41869  439.7757 1.8772  9.4352 1.9883  23.3430 0.0804 -0.0154 0.0050   0.400000   0.994835  0
