# n   l  Freq Error Height Error Width Error Noise Error Asym Error Split Split_error Mask
 11 2 1810.40488 0.07030   67.1849 1.9528  0.3463 0.1487  56.4035 0.0346 -0.0458 0.0275   0.369616   0.035087  0
 12 0 1822.26578 0.11904  335.7839 1.9528  0.2499 0.1290  56.4035 0.0346 -0.0458 0.0275   0.000000   0.000000  0
 11 3 1865.55718 0.07917   21.6788 1.8202  0.1218 0.1496  52.3061 0.0348  0.0394 0.0459   0.371441   0.016286  1
 12 1 1885.08269 0.15702  120.4311 1.8202  0.5121 0.2128  52.3061 0.0348  0.0394 0.0459   0.391479   0.074589  0
 12 2 1945.89043 0.05161   91.3845 1.9998  0.2480 0.0959  58.8018 0.0340 -0.0286 0.0267   0.423467   0.027931  0
 13 0 1957.43406 0.09005  583.4996 1.9998  0.3021 0.0934  58.8018 0.0340 -0.0286 0.0267   0.000000   0.000000  0
 12 3 2001.18030 0.06549   29.8871 1.5696  0.1246 0.1427  56.1831 0.0279 -0.0583 0.0218   0.412139   0.011425  1
 13 1 2020.82112 0.14098  145.9916 1.5696  0.6231 0.1945  56.1831 0.0279 -0.0583 0.0218   0.384972   0.089456  0
 13 2 2082.03176 0.05592  127.9205 1.6220  0.3382 0.1079  58.6976 0.0276 -0.0359 0.0157   0.361090   0.024994  0
 14 0 2093.63362 0.08685  606.9019 1.6220  0.5314 0.1355  58.6976 0.0276 -0.0359 0.0157   0.000000   0.000000  0
 13 3 2138.14050 0.07272   27.0436 1.5225  0.2802 0.1803  53.4554 0.0285 -0.0391 0.0130   0.322866   0.025815  1
 14 1 2156.97941 0.08366  475.1199 1.5225  0.5549 0.1245  53.4554 0.0285 -0.0391 0.0130   0.262472   0.066313  0
 14 2 2217.73182 0.05995  206.5004 1.7112  0.4547 0.1073  52.9479 0.0323 -0.0387 0.0098   0.338471   0.025706  0
 15 0 2228.75686 0.07995  824.9128 1.7112  0.6989 0.1412  52.9479 0.0323 -0.0387 0.0098   0.000000   0.000000  0
 14 3 2273.28732 0.05252   52.9964 1.6541  0.2230 0.1116  50.7906 0.0326 -0.0439 0.0069   0.426678   0.014296  0
 15 1 2292.18629 0.07683  842.0896 1.6541  0.7509 0.1157  50.7906 0.0326 -0.0439 0.0069   0.342192   0.075508  0
 15 2 2352.27198 0.09246  272.9241 1.8191  0.8572 0.1555  56.6377 0.0321 -0.0198 0.0106   0.426693   0.041480  0
 16 0 2362.76963 0.09312  847.7928 1.8191  1.0450 0.1772  56.6377 0.0321 -0.0198 0.0106   0.000000   0.000000  0
 15 3 2408.45664 0.09484   39.3579 1.8320  0.4523 0.2087  55.9998 0.0327 -0.0195 0.0076   0.316400   0.028160  1
 16 1 2425.68737 0.08558 1117.8902 1.8320  0.9693 0.1385  55.9998 0.0327 -0.0195 0.0076   0.398116   0.083825  0
 16 2 2486.13858 0.08986  365.8629 2.0173  1.1799 0.1854  48.9582 0.0412 -0.0356 0.0056   0.334744   0.052456  0
 17 0 2496.28017 0.08031 1564.4050 2.0173  1.1547 0.1558  48.9582 0.0412 -0.0356 0.0056   0.000000   0.000000  0
 16 3 2541.86141 0.08997   62.0088 1.4688  0.6647 0.2070  53.5315 0.0274 -0.0070 0.0045   0.377077   0.025598  0
 17 1 2559.32634 0.07255 2429.5579 1.4688  0.8705 0.1083  53.5315 0.0274 -0.0070 0.0045   0.503495   0.062974  0
 17 2 2620.02484 0.08929  512.7938 1.7368  1.1950 0.1663  53.9931 0.0322 -0.0196 0.0048   0.304509   0.060719  0
 18 0 2629.76512 0.07807 2092.4138 1.7368  1.1504 0.1494  53.9931 0.0322 -0.0196 0.0048   0.000000   0.000000  0
 17 3 2676.34470 0.08777   80.4709 1.7140  0.8045 0.3662  55.2742 0.0310 -0.0084 0.0029   0.366592   0.026679  0
 18 1 2693.47322 0.06311 4515.4122 1.7140  0.8650 0.1017  55.2742 0.0310 -0.0084 0.0029   0.293016   0.086385  0
 18 2 2754.65364 0.07024 1193.2452 1.7060  0.9196 0.1194  55.1909 0.0309 -0.0086 0.0030   0.412171   0.037053  0
 19 0 2764.22493 0.06821 4578.1496 1.7060  1.0531 0.1307  55.1909 0.0309 -0.0086 0.0030   0.000000   0.000000  0
 18 3 2811.66080 0.07932  173.4829 1.7371  0.7448 0.1517  53.6992 0.0323 -0.0114 0.0027   0.425700   0.024472  0
 19 1 2828.26774 0.07560 3778.4259 1.7371  1.2879 0.1266  53.6992 0.0323 -0.0114 0.0027   0.362994   0.123420  0
 19 2 2889.77593 0.06731 2030.5695 1.8338  0.8504 0.1023  56.4441 0.0325 -0.0051 0.0022   0.430123   0.034046  0
 20 0 2899.11397 0.06613 6576.1299 1.8338  1.0844 0.1282  56.4441 0.0325 -0.0051 0.0022   0.000000   0.000000  0
 19 3 2947.27159 0.09545  162.9613 1.9223  1.0654 0.2212  56.3014 0.0341 -0.0109 0.0018   0.446410   0.029601  0
 20 1 2963.50129 0.06408 8503.8492 1.9223  1.0057 0.0955  56.3014 0.0341 -0.0109 0.0018   0.414431   0.079815  0
 20 2 3025.02669 0.07687 1611.3400 2.2782  1.1199 0.1505  59.2709 0.0384 -0.0122 0.0019   0.454726   0.041480  0
 21 0 3033.95171 0.06379 11449.6848 2.2782  1.0820 0.1151  59.2709 0.0384 -0.0122 0.0019   0.000000   0.000000  0
 20 3 3082.51437 0.09723  210.1385 2.0665  1.0745 0.1947  56.3349 0.0367 -0.0082 0.0016   0.388992   0.030430  0
 21 1 3098.37912 0.06712 9821.5184 2.0665  1.1353 0.1043  56.3349 0.0367 -0.0082 0.0016   0.454094   0.084744  0
 21 2 3160.13027 0.07692 2421.8917 2.5191  1.1078 0.1295  62.9770 0.0400 -0.0080 0.0018   0.456439   0.039976  0
 22 0 3168.81173 0.06716 11526.8524 2.5191  1.1567 0.1276  62.9770 0.0400 -0.0080 0.0018   0.000000   0.000000  0
 21 3 3217.80532 0.14069  135.6976 2.2799  1.4972 0.2846  60.4362 0.0377 -0.0110 0.0018   0.335534   0.050935  0
 22 1 3233.44060 0.07137 8427.5654 2.2799  1.3405 0.1203  60.4362 0.0377 -0.0110 0.0018   0.262447   0.124531  0
 22 2 3295.14809 0.09328 1586.8518 2.4217  1.6266 0.1759  62.2769 0.0389 -0.0034 0.0019   0.400000   0.068688  0
 23 0 3303.72641 0.07368 11053.4745 2.4217  1.3224 0.1428  62.2769 0.0389 -0.0034 0.0019   0.000000   0.000000  0
 22 3 3353.93391 0.16436  117.9684 2.4233  1.7309 0.3501  59.3641 0.0408 -0.0117 0.0023   0.371241   0.060926  0
 23 1 3368.75243 0.09117 4950.2864 2.4233  1.9935 0.1588  59.3641 0.0408 -0.0117 0.0023   0.447605   0.181557  0
 23 2 3431.11550 0.13218  781.0723 3.2491  2.3512 0.2797  65.8873 0.0493 -0.0128 0.0029   0.400000   0.124118  0
 24 0 3439.19863 0.11266 4415.5829 3.2491  2.4621 0.2243  65.8873 0.0493 -0.0128 0.0029   0.000000   0.000000  0
 23 3 3489.95737 0.37172   40.4177 2.9322  4.2080 0.8846  54.3928 0.0539 -0.0119 0.0031   0.400000   0.273247  1
 24 1 3504.59362 0.11645 2689.8464 2.9322  2.9855 0.2238  54.3928 0.0539 -0.0119 0.0031   0.400000   0.251939  0
 24 2 3567.10616 0.21581  311.8820 3.1760  4.2121 0.4829  56.7914 0.0559 -0.0092 0.0040   0.400000   0.331339  0
 25 0 3574.71030 0.15542 2360.2193 3.1760  3.4378 0.3118  56.7914 0.0559 -0.0092 0.0040   0.000000   0.000000  0
 24 3 3640.96828 0.24871  452.7595 7.4791  1.7358 0.5673  51.3144 0.1457 -0.0284 0.0041   0.400000   0.077210  0
 25 1 3640.32052 0.34959  620.9550 7.4791  7.2070 3.7977  51.3144 0.1457 -0.0284 0.0041   0.400000   0.806225  0
 25 2 3703.71036 0.26033  242.5895 3.8243  4.9675 0.6036  60.6621 0.0630 -0.0203 0.0053   0.400000   0.361168  0
 26 0 3711.61837 0.21313 1318.7270 3.8243  4.8046 0.4365  60.6621 0.0630 -0.0203 0.0053   0.000000   0.000000  0
 25 3 3777.16367 0.32494  184.9955 4.3926  2.4669 1.2076  50.3866 0.0872 -0.0202 0.0067   0.400000   0.107686  0
 26 1 3776.34198 0.46104  369.9739 4.3926 10.7664 1.9126  50.3866 0.0872 -0.0202 0.0067   0.400000   2.854203  0
