# n   l  Freq Error Height Error Width Error Noise Error Asym Error Split Split_error Mask
 11 2 1810.36700 0.03913   77.5270 1.1530  0.2520 0.0840  27.8003 0.0415 -0.0580 0.0111   0.403639   0.017384  0
 12 0 1822.24297 0.07609  388.5304 1.1530  0.2936 0.1029  27.8003 0.0415 -0.0580 0.0111   0.000000   0.000000  0
 11 3 1865.37520 0.04061   36.8894 1.3076  0.0576 0.0449  28.2935 0.0462 -0.0456 0.0067   0.406470   0.005716  0
 12 1 1885.08842 0.06364  621.6698 1.3076  0.2651 0.0621  28.2935 0.0462 -0.0456 0.0067   0.359714   0.030079  0
 12 2 1945.82447 0.04804  130.7404 1.2272  0.3887 0.0955  27.8650 0.0440 -0.0620 0.0087   0.386501   0.022218  0
 13 0 1957.48188 0.07199  402.6943 1.2272  0.3598 0.0998  27.8650 0.0440 -0.0620 0.0087   0.000000   0.000000  0
 12 3 2001.12297 0.05984   21.7016 0.9812  0.2911 0.1627  27.2938 0.0359 -0.0372 0.0050   0.349777   0.015053  1
 13 1 2020.84088 0.05827  913.9511 0.9812  0.3216 0.0610  27.2938 0.0359 -0.0372 0.0050   0.463907   0.031384  0
 13 2 2082.17842 0.06960  135.0450 0.9470  0.6667 0.1441  26.9968 0.0351 -0.0379 0.0066   0.349689   0.030836  0
 14 0 2093.53215 0.05922  948.8680 0.9470  0.4702 0.0899  26.9968 0.0351 -0.0379 0.0066   0.000000   0.000000  0
 13 3 2137.84324 0.05411   41.5907 0.8946  0.3782 0.1349  28.0253 0.0319 -0.0300 0.0059   0.391750   0.017468  0
 14 1 2156.86672 0.06556  827.2741 0.8946  0.5619 0.0843  28.0253 0.0319 -0.0300 0.0059   0.374332   0.050796  0
 14 2 2217.73189 0.07501  224.3454 0.9047  0.8663 0.1410  23.5118 0.0385 -0.0346 0.0052   0.371515   0.042518  0
 15 0 2228.78646 0.06530  893.8171 0.9047  0.7596 0.1237  23.5118 0.0385 -0.0346 0.0052   0.000000   0.000000  0
 14 3 2273.81353 0.11900   26.0934 1.0231  0.8666 0.3590  26.1309 0.0392 -0.0400 0.0042   0.366371   0.035201  1
 15 1 2292.09838 0.07049  991.7181 1.0231  0.9105 0.1078  26.1309 0.0392 -0.0400 0.0042   0.262444   0.105613  0
 15 2 2352.27189 0.08948  237.7988 0.7068  1.2272 0.1726  27.3341 0.0259 -0.0212 0.0051   0.362419   0.053389  0
 16 0 2362.81597 0.06775 1522.8663 0.7068  0.8820 0.0914  27.3341 0.0259 -0.0212 0.0051   0.000000   0.000000  0
 15 3 2407.60686 0.12864   43.8162 1.1282  1.4008 0.3258  25.0032 0.0451 -0.0313 0.0032   0.349053   0.043161  0
 16 1 2425.66441 0.06950 1619.6436 1.1282  1.0102 0.1038  25.0032 0.0451 -0.0313 0.0032   0.267235   0.111347  0
 16 2 2485.88739 0.08723  345.3841 1.1707  1.2174 0.1736  26.1490 0.0448 -0.0256 0.0033   0.454156   0.047622  0
 17 0 2496.24659 0.06209 2939.3184 1.1707  0.9305 0.1022  26.1490 0.0448 -0.0256 0.0033   0.000000   0.000000  0
 16 3 2541.65276 0.11945   73.8377 0.8781  1.4136 0.2344  27.2884 0.0322 -0.0166 0.0025   0.337212   0.042956  0
 17 1 2559.18689 0.06517 2616.6723 0.8781  0.9766 0.0964  27.2884 0.0322 -0.0166 0.0025   0.400387   0.082143  0
 17 2 2619.99806 0.08373  591.6237 1.1337  1.3140 0.1592  32.6281 0.0347 -0.0131 0.0027   0.462240   0.046142  0
 18 0 2629.66567 0.06198 4115.2212 1.1337  0.8870 0.1161  32.6281 0.0347 -0.0131 0.0027   0.000000   0.000000  0
 17 3 2676.39499 0.08059  160.1961 0.9631  0.9230 0.1491  28.1252 0.0342 -0.0116 0.0018   0.428031   0.025735  0
 18 1 2693.53103 0.06376 4458.8138 0.9631  0.9898 0.0938  28.1252 0.0342 -0.0116 0.0018   0.441058   0.076459  0
 18 2 2754.62687 0.06822 1328.4554 1.1215  1.0597 0.1228  33.5119 0.0335 -0.0114 0.0020   0.450505   0.035518  0
 19 0 2764.35538 0.06071 5360.7655 1.1215  0.9267 0.1132  33.5119 0.0335 -0.0114 0.0020   0.000000   0.000000  0
 18 3 2811.56010 0.09471  202.0258 1.0537  1.1676 0.1691  28.5404 0.0369 -0.0139 0.0014   0.361001   0.032918  0
 19 1 2828.43858 0.06161 7665.4185 1.0537  0.9294 0.0774  28.5404 0.0369 -0.0139 0.0014   0.473870   0.072005  0
 19 2 2889.84475 0.07649 1494.4547 1.3085  1.3118 0.1466  32.8876 0.0398 -0.0092 0.0015   0.471285   0.044060  0
 20 0 2899.29188 0.05282 12857.6061 1.3085  0.7436 0.0922  32.8876 0.0398 -0.0092 0.0015   0.000000   0.000000  0
 19 3 2947.18464 0.08754  315.1761 1.3328  1.3268 0.1753  30.4975 0.0437 -0.0069 0.0013   0.362708   0.030724  0
 20 1 2963.45831 0.06553 7325.5284 1.3328  1.1404 0.1029  30.4975 0.0437 -0.0069 0.0013   0.512654   0.078690  0
 20 2 3025.04818 0.08282 2176.0030 1.8316  1.3295 0.1406  44.2129 0.0414 -0.0090 0.0016   0.462457   0.048718  0
 21 0 3033.87644 0.06382 10522.6417 1.8316  1.0358 0.1183  44.2129 0.0414 -0.0090 0.0016   0.000000   0.000000  0
 20 3 3082.66437 0.08306  379.1794 1.5257  1.1711 0.1561  34.9567 0.0436 -0.0092 0.0013   0.444323   0.027336  0
 21 1 3098.53825 0.06694 8953.7043 1.5257  1.1999 0.0969  34.9567 0.0436 -0.0092 0.0013   0.585632   0.078559  0
 21 2 3160.22124 0.08514 1997.1801 1.9679  1.5270 0.1686  39.0153 0.0504 -0.0084 0.0015   0.377580   0.060016  0
 22 0 3168.97831 0.07066 9233.5482 1.9679  1.2792 0.1339  39.0153 0.0504 -0.0084 0.0015   0.000000   0.000000  0
 21 3 3218.12078 0.13037  226.5991 1.6933  2.1253 0.2634  35.0120 0.0484 -0.0088 0.0015   0.436586   0.052338  0
 22 1 3233.58825 0.07393 6427.0726 1.6933  1.5606 0.1270  35.0120 0.0484 -0.0088 0.0015   0.262442   0.186807  0
 22 2 3295.38562 0.11033 1279.2141 1.9295  2.1783 0.2087  42.3371 0.0456 -0.0069 0.0019   0.400000   0.106906  0
 23 0 3303.80339 0.08639 6253.1763 1.9295  1.6272 0.1656  42.3371 0.0456 -0.0069 0.0019   0.000000   0.000000  0
 22 3 3354.02619 0.13376  172.6446 1.7230  2.0301 0.2861  33.2471 0.0518 -0.0124 0.0017   0.479153   0.050477  0
 23 1 3369.02236 0.09091 4313.8920 1.7230  2.1369 0.1573  33.2471 0.0518 -0.0124 0.0017   0.386125   0.213770  0
 23 2 3431.32368 0.13279  762.4079 2.0593  2.9276 0.2900  35.8700 0.0574 -0.0107 0.0021   0.400000   0.140935  0
 24 0 3439.37824 0.09629 4795.5293 2.0593  1.9035 0.1846  35.8700 0.0574 -0.0107 0.0021   0.000000   0.000000  0
 23 3 3490.17029 0.20454   93.6421 1.8499  3.4988 0.4629  29.5852 0.0625 -0.0117 0.0023   0.400000   0.109657  0
 24 1 3504.56352 0.10905 2465.3865 1.8499  2.8620 0.2085  29.5852 0.0625 -0.0117 0.0023   0.400000   0.420057  0
 24 2 3567.92524 0.17196  456.4856 2.4198  3.8101 0.4011  34.5565 0.0700 -0.0178 0.0029   0.400000   0.226503  0
 25 0 3575.25454 0.13660 2256.8052 2.4198  2.8589 0.2677  34.5565 0.0700 -0.0178 0.0029   0.000000   0.000000  0
 24 3 3626.10572 0.28985   48.6984 2.1763  4.4861 0.7666  26.7470 0.0814 -0.0229 0.0030   0.400000   0.176937  0
 25 1 3640.87112 0.14255 1326.5864 2.1763  4.3321 0.2862  26.7470 0.0814 -0.0229 0.0030   0.400000   0.876622  0
 25 2 3704.62132 0.27877  214.6925 2.7354  6.7373 0.6207  23.3517 0.1171 -0.0214 0.0040   0.400000   2.479282  0
 26 0 3711.64220 0.23168  911.7718 2.7354  4.6266 0.4571  23.3517 0.1171 -0.0214 0.0040   0.000000   0.000000  0
 25 3 3763.28664 0.43948   29.2012 2.2312  7.3000 1.0758  25.0846 0.0889 -0.0168 0.0046   0.400000   0.421044  0
 26 1 3777.21509 0.18871  650.0144 2.2312  5.8030 0.3999  25.0846 0.0889 -0.0168 0.0046   0.400000   0.723989  0
