# n   l  Freq Error Height Error Width Error Noise Error Asym Error Split Split_error Mask
 11 2 1810.25489 0.04179   77.0201 1.1456  0.2264 0.0835  34.7258 0.0330 -0.0048 0.0351   0.395675   0.017724  0
 12 0 1822.17613 0.09670  471.3988 1.1456  0.1266 0.0595  34.7258 0.0330 -0.0048 0.0351   0.000000   0.000000  0
 11 3 1865.33806 0.06017   21.1430 1.1835  0.1310 0.0867  34.8129 0.0340 -0.0225 0.0269   0.419541   0.013389  1
 12 1 1885.12726 0.10358  248.7636 1.1835  0.3064 0.0813  34.8129 0.0340 -0.0225 0.0269   0.413807   0.037642  0
 12 2 1945.90518 0.07650   60.2509 1.3232  0.5487 0.2044  34.5581 0.0383 -0.0093 0.0306   0.463930   0.038159  0
 13 0 1957.39520 0.10121  323.8503 1.3232  0.4202 0.1341  34.5581 0.0383 -0.0093 0.0306   0.000000   0.000000  0
 12 3 2001.16268 0.09074   16.5305 0.9091  0.3686 0.2109  31.9912 0.0284 -0.0129 0.0189   0.405619   0.025035  1
 13 1 2020.73993 0.10054  318.7311 0.9091  0.5943 0.1224  31.9912 0.0284 -0.0129 0.0189   0.368244   0.059542  0
 13 2 2082.15254 0.06771  110.3651 0.9058  0.5476 0.1454  31.2946 0.0289 -0.0059 0.0152   0.362983   0.030957  0
 14 0 2093.48872 0.07992  734.6881 0.9058  0.4984 0.1068  31.2946 0.0289 -0.0059 0.0152   0.000000   0.000000  0
 13 3 2137.94152 0.11287   17.0632 0.9666  0.6566 0.3208  30.8853 0.0313 -0.0274 0.0078   0.475967   0.036630  1
 14 1 2156.83506 0.06863  712.5615 0.9666  0.5382 0.0894  30.8853 0.0313 -0.0274 0.0078   0.324593   0.051907  0
 14 2 2217.73465 0.08378  130.8227 0.9315  0.7701 0.1556  30.4006 0.0306 -0.0259 0.0085   0.399603   0.039555  0
 15 0 2228.75611 0.06895 1005.7696 0.9315  0.6228 0.1101  30.4006 0.0306 -0.0259 0.0085   0.000000   0.000000  0
 14 3 2273.52188 0.10538   27.6906 1.0218  0.6912 0.2523  30.2343 0.0338 -0.0236 0.0062   0.403943   0.032274  1
 15 1 2291.93961 0.07457  823.9067 1.0218  0.8688 0.1143  30.2343 0.0338 -0.0236 0.0062   0.290569   0.093150  0
 15 2 2352.42313 0.07367  247.7937 1.0373  0.8392 0.1497  29.7046 0.0349 -0.0340 0.0055   0.437607   0.038546  0
 16 0 2362.81855 0.07464  952.9309 1.0373  1.0154 0.1344  29.7046 0.0349 -0.0340 0.0055   0.000000   0.000000  0
 15 3 2407.73623 0.16556   22.1071 1.2018  1.3011 0.4922  28.9152 0.0416 -0.0168 0.0048   0.433856   0.054411  1
 16 1 2425.68929 0.07944 1067.0178 1.2018  1.1369 0.1290  28.9152 0.0416 -0.0168 0.0048   0.369996   0.103637  0
 16 2 2485.99611 0.08607  368.5354 1.1832  1.0282 0.1446  31.2860 0.0378 -0.0224 0.0048   0.452958   0.043972  0
 17 0 2496.22380 0.08098 1320.6270 1.1832  1.3034 0.1555  31.2860 0.0378 -0.0224 0.0048   0.000000   0.000000  0
 16 3 2541.90721 0.09585   66.6909 0.9245  0.9217 0.1941  29.8994 0.0309 -0.0089 0.0023   0.434239   0.030446  0
 17 1 2559.29400 0.06217 3344.7643 0.9245  0.8731 0.0956  29.8994 0.0309 -0.0089 0.0023   0.411180   0.068886  0
 17 2 2619.76705 0.06640  792.8901 1.1024  0.9249 0.1210  33.6324 0.0328 -0.0106 0.0024   0.407928   0.035986  0
 18 0 2629.75722 0.05558 5475.7816 1.1024  0.7676 0.1018  33.6324 0.0328 -0.0106 0.0024   0.000000   0.000000  0
 17 3 2676.15532 0.09313   88.2920 1.0463  1.0608 0.2223  30.7819 0.0340 -0.0132 0.0021   0.417727   0.028841  0
 18 1 2693.49223 0.06584 3411.3247 1.0463  1.0893 0.1061  30.7819 0.0340 -0.0132 0.0021   0.262445   0.104036  0
 18 2 2754.61256 0.06675 1264.8102 1.2404  0.9566 0.1217  33.6715 0.0368 -0.0107 0.0017   0.382835   0.036884  0
 19 0 2764.22507 0.05908 7808.4723 1.2404  0.9582 0.1096  33.6715 0.0368 -0.0107 0.0017   0.000000   0.000000  0
 18 3 2811.71092 0.08575  155.8113 1.1618  1.0807 0.1838  31.6087 0.0368 -0.0050 0.0013   0.426521   0.027880  0
 19 1 2828.22543 0.05733 9032.1091 1.1618  0.8643 0.0879  31.6087 0.0368 -0.0050 0.0013   0.422785   0.066325  0
 19 2 2889.57221 0.07731 1518.2417 1.5269  1.2025 0.1374  38.8390 0.0393 -0.0050 0.0014   0.428452   0.046736  0
 20 0 2899.09620 0.05068 16237.2737 1.5269  0.7320 0.0909  38.8390 0.0393 -0.0050 0.0014   0.000000   0.000000  0
 19 3 2947.19015 0.09122  191.1337 1.3982  1.1294 0.1754  35.6564 0.0392 -0.0067 0.0013   0.435557   0.029128  0
 20 1 2963.44555 0.06088 10296.6821 1.3982  0.9866 0.0881  35.6564 0.0392 -0.0067 0.0013   0.511085   0.069797  0
 20 2 3024.94890 0.07155 2509.0842 1.9427  1.1112 0.1294  47.5282 0.0409 -0.0065 0.0013   0.396239   0.041229  0
 21 0 3033.85795 0.05437 21790.7007 1.9427  0.8283 0.0990  47.5282 0.0409 -0.0065 0.0013   0.000000   0.000000  0
 20 3 3082.42183 0.10687  232.0129 1.7920  1.3109 0.2075  42.9204 0.0418 -0.0076 0.0013   0.425240   0.035855  0
 21 1 3098.38573 0.06475 10589.7141 1.7920  1.1886 0.1043  42.9204 0.0418 -0.0076 0.0013   0.336259   0.112423  0
 21 2 3160.09576 0.07111 3232.5455 2.0857  1.1281 0.1283  46.1555 0.0452 -0.0065 0.0012   0.417773   0.038977  0
 22 0 3168.76115 0.06100 19623.7835 2.0857  1.0321 0.1138  46.1555 0.0452 -0.0065 0.0012   0.000000   0.000000  0
 21 3 3217.90855 0.11935  205.0691 1.9506  1.5606 0.2416  43.0730 0.0453 -0.0064 0.0014   0.440986   0.041321  0
 22 1 3233.37516 0.07221 9595.7251 1.9506  1.4105 0.1204  43.0730 0.0453 -0.0064 0.0014   0.462755   0.111884  0
 22 2 3295.31495 0.10465 1647.6980 2.2378  1.8770 0.2034  42.6229 0.0525 -0.0108 0.0017   0.400000   0.080045  0
 23 0 3303.69517 0.08648 8028.2555 2.2378  1.7802 0.1635  42.6229 0.0525 -0.0108 0.0017   0.000000   0.000000  0
 22 3 3353.50806 0.16278  120.1029 1.9386  2.2887 0.3828  34.9297 0.0555 -0.0100 0.0015   0.342657   0.071250  0
 23 1 3368.79199 0.08568 6598.5760 1.9386  1.9613 0.1420  34.9297 0.0555 -0.0100 0.0015   0.584942   0.139684  0
 23 2 3430.94109 0.11982 1067.8258 2.5532  2.5625 0.2513  46.5120 0.0549 -0.0064 0.0021   0.400000   0.119621  0
 24 0 3439.29366 0.09916 5521.8907 2.5532  2.0076 0.1938  46.5120 0.0549 -0.0064 0.0021   0.000000   0.000000  0
 23 3 3489.74008 0.26407   59.6967 2.3486  3.4540 0.6551  33.5018 0.0701 -0.0142 0.0020   0.400000   0.138243  0
 24 1 3504.57358 0.10520 3784.7006 2.3486  2.8138 0.1930  33.5018 0.0701 -0.0142 0.0020   0.400000   0.868481  0
 24 2 3567.25290 0.17980  506.7859 2.9766  3.9282 0.3921  40.3357 0.0738 -0.0068 0.0028   0.400000   0.217816  0
 25 0 3575.04119 0.15732 2485.5257 2.9766  3.6530 0.3197  40.3357 0.0738 -0.0068 0.0028   0.000000   0.000000  0
 24 3 3626.18105 0.41595   32.5145 2.5634  5.0707 0.9824  34.1582 0.0750 -0.0092 0.0030   0.400000   0.318045  1
 25 1 3640.36415 0.13617 1930.2506 2.5634  3.9909 0.2731  34.1582 0.0750 -0.0092 0.0030   0.400000   0.610608  0
 25 2 3704.52057 0.29631  264.8399 3.1837  6.9451 0.6043  40.0483 0.0795 -0.0076 0.0041   0.400000   0.797407  0
 26 0 3711.23985 0.21570 1538.5447 3.1837  4.1398 0.4189  40.0483 0.0795 -0.0076 0.0041   0.000000   0.000000  0
 25 3 3763.28550 0.60781   21.3760 3.2122  6.1056 1.6103  36.8532 0.0872 -0.0121 0.0042   0.400000   0.452350  1
 26 1 3776.98131 0.17842 1107.1565 3.2122  5.6226 0.3791  36.8532 0.0872 -0.0121 0.0042   0.400000   1.006539  0
