# n   l  Freq Error Height Error Width Error Noise Error Asym Error Split Split_error Mask
 11 2 1810.35668 0.03467  110.9567 1.2379  0.1795 0.0760  35.9177 0.0345  0.0045 0.0327   0.411363   0.016866  0
 12 0 1822.15644 0.09030  378.2930 1.2379  0.2277 0.0930  35.9177 0.0345  0.0045 0.0327   0.000000   0.000000  0
 11 3 1865.37366 0.02997   54.0965 1.2415  0.1109 0.0426  32.1861 0.0386 -0.0387 0.0128   0.378249   0.008674  0
 12 1 1885.09155 0.08510  252.4659 1.2415  0.4019 0.1085  32.1861 0.0386 -0.0387 0.0128   0.335040   0.043137  0
 12 2 1945.75617 0.04839  149.9936 1.3189  0.3287 0.0817  34.3713 0.0384 -0.0132 0.0169   0.323993   0.023407  0
 13 0 1957.43300 0.07333  628.6879 1.3189  0.3900 0.1023  34.3713 0.0384 -0.0132 0.0169   0.000000   0.000000  0
 12 3 2001.25240 0.03510   53.1156 0.9718  0.1833 0.0594  32.5229 0.0299 -0.0192 0.0118   0.406176   0.011703  0
 13 1 2020.81748 0.07175  465.2839 0.9718  0.5537 0.0877  32.5229 0.0299 -0.0192 0.0118   0.337125   0.046031  0
 13 2 2082.03231 0.06984  116.3947 1.0618  0.6597 0.1479  29.6369 0.0358 -0.0272 0.0102   0.436753   0.030641  0
 14 0 2093.48617 0.07310  581.6805 1.0618  0.6468 0.1295  29.6369 0.0358 -0.0272 0.0102   0.000000   0.000000  0
 13 3 2137.63463 0.07717   33.1176 1.0714  0.4785 0.1354  31.5164 0.0340 -0.0212 0.0083   0.410624   0.023765  0
 14 1 2156.76884 0.06707  675.2341 1.0714  0.5970 0.0861  31.5164 0.0340 -0.0212 0.0083   0.506305   0.039008  0
 14 2 2217.59757 0.05456  237.6865 1.0806  0.6632 0.1150  27.5389 0.0392 -0.0396 0.0049   0.422220   0.025838  0
 15 0 2228.78427 0.06666  968.8460 1.0806  0.8694 0.1263  27.5389 0.0392 -0.0396 0.0049   0.000000   0.000000  0
 14 3 2273.43272 0.05494   56.4966 1.0803  0.4178 0.1136  26.9721 0.0401 -0.0265 0.0054   0.357788   0.016033  0
 15 1 2292.09158 0.06199  750.5192 1.0803  0.9616 0.1024  26.9721 0.0401 -0.0265 0.0054   0.382849   0.061430  0
 15 2 2352.17941 0.07077  296.7165 1.1728  1.0121 0.1422  26.1987 0.0448 -0.0111 0.0054   0.493592   0.035650  0
 16 0 2362.90346 0.07898  994.7265 1.1728  1.3146 0.1563  26.1987 0.0448 -0.0111 0.0054   0.000000   0.000000  0
 15 3 2407.31590 0.14735   37.8168 1.3044  1.3394 0.2812  26.0636 0.0500 -0.0128 0.0050   0.392520   0.046571  0
 16 1 2425.63002 0.06927  997.5762 1.3044  1.2890 0.1067  26.0636 0.0500 -0.0128 0.0050   0.484704   0.071467  0
 16 2 2486.00626 0.08422  352.2463 1.3120  1.2210 0.1546  29.1915 0.0449 -0.0164 0.0042   0.541721   0.041462  0
 17 0 2496.23353 0.06401 2112.5695 1.3120  1.1289 0.1170  29.1915 0.0449 -0.0164 0.0042   0.000000   0.000000  0
 16 3 2541.69877 0.08051   87.2966 0.9340  0.8709 0.1791  26.6967 0.0350 -0.0177 0.0034   0.364854   0.025858  0
 17 1 2559.27740 0.06857 1280.2843 0.9340  1.5506 0.1105  26.6967 0.0350 -0.0177 0.0034   0.465121   0.091850  0
 17 2 2619.65251 0.08085  560.4564 1.0370  1.3270 0.1403  28.2045 0.0368 -0.0074 0.0026   0.451200   0.042883  0
 18 0 2629.65553 0.05215 4036.1983 1.0370  0.9590 0.0961  28.2045 0.0368 -0.0074 0.0026   0.000000   0.000000  0
 17 3 2676.29405 0.09030  132.6421 1.0633  1.0785 0.1701  27.0235 0.0393 -0.0113 0.0022   0.442193   0.028882  0
 18 1 2693.35765 0.05309 2812.9972 1.0633  1.4100 0.0917  27.0235 0.0393 -0.0113 0.0022   0.262441   0.109910  0
 18 2 2754.58399 0.07800  892.1803 1.3548  1.4890 0.1452  30.4900 0.0444 -0.0070 0.0022   0.377317   0.047619  0
 19 0 2764.02727 0.05157 5910.1570 1.3548  1.0232 0.0942  30.4900 0.0444 -0.0070 0.0022   0.000000   0.000000  0
 18 3 2811.44231 0.06942  282.9719 1.1098  0.8077 0.1110  26.4909 0.0419 -0.0088 0.0019   0.380815   0.022024  0
 19 1 2828.13765 0.05866 3351.3250 1.1098  1.5456 0.0967  26.4909 0.0419 -0.0088 0.0019   0.471654   0.081475  0
 19 2 2889.81983 0.07533 1716.4538 1.8253  1.2585 0.1233  34.6280 0.0527 -0.0063 0.0016   0.404134   0.043255  0
 20 0 2899.09882 0.05296 9456.6002 1.8253  1.1851 0.0995  34.6280 0.0527 -0.0063 0.0016   0.000000   0.000000  0
 19 3 2947.00473 0.07846  306.5034 1.3830  0.9473 0.1371  30.0272 0.0461 -0.0093 0.0014   0.404453   0.025512  0
 20 1 2963.25492 0.04682 7520.8302 1.3830  1.2499 0.0784  30.0272 0.0461 -0.0093 0.0014   0.331741   0.072013  0
 20 2 3024.88742 0.06340 2513.0409 1.8046  1.2346 0.1113  35.0574 0.0515 -0.0064 0.0014   0.431282   0.033199  0
 21 0 3033.70504 0.04587 14758.1398 1.8046  0.9375 0.0858  35.0574 0.0515 -0.0064 0.0014   0.000000   0.000000  0
 20 3 3082.11693 0.09016  326.0407 1.7095  1.2279 0.1722  30.2906 0.0564 -0.0065 0.0014   0.417491   0.028133  0
 21 1 3098.07774 0.05870 6934.7427 1.7095  1.6650 0.0974  30.2906 0.0564 -0.0065 0.0014   0.507545   0.084630  0
 21 2 3159.90146 0.06849 2817.8970 2.1885  1.2658 0.1195  37.9120 0.0577 -0.0037 0.0014   0.447130   0.035026  0
 22 0 3168.58139 0.05855 11303.4866 2.1885  1.3714 0.1118  37.9120 0.0577 -0.0037 0.0014   0.000000   0.000000  0
 21 3 3217.67594 0.10350  327.0075 1.8467  1.2279 0.1787  31.5426 0.0585 -0.0086 0.0013   0.372917   0.033885  0
 22 1 3232.98138 0.06160 7449.7132 1.8467  1.7626 0.0995  31.5426 0.0585 -0.0086 0.0013   0.513957   0.093448  0
 22 2 3295.26423 0.08105 2456.1126 2.3785  1.6385 0.1399  35.1474 0.0677 -0.0033 0.0014   0.400000   0.055597  0
 23 0 3303.26211 0.06649 10459.0013 2.3785  1.5534 0.1259  35.1474 0.0677 -0.0033 0.0014   0.000000   0.000000  0
 22 3 3353.08566 0.11877  178.6361 2.0665  1.3072 0.3295  34.8983 0.0592 -0.0130 0.0016   0.337529   0.038728  0
 23 1 3368.68674 0.07235 5875.3494 2.0665  2.1623 0.1181  34.8983 0.0592 -0.0130 0.0016   0.363139   0.185484  0
 23 2 3430.71897 0.12762 1223.0820 2.9017  2.8212 0.2257  40.1095 0.0723 -0.0051 0.0020   0.400000   0.145877  0
 24 0 3439.10947 0.09808 5419.9129 2.9017  2.2823 0.1808  40.1095 0.0723 -0.0051 0.0020   0.000000   0.000000  0
 23 3 3489.85721 0.33832   69.4614 2.8900  3.5166 0.7052  32.6210 0.0886 -0.0104 0.0022   0.400000   0.174334  0
 24 1 3504.18335 0.10241 3549.0871 2.8900  3.2125 0.1845  32.6210 0.0886 -0.0104 0.0022   0.400000   1.618756  0
 24 2 3567.25154 0.14309  946.7647 3.2647  2.8190 0.2668  32.7945 0.0996 -0.0121 0.0022   0.400000   0.142424  0
 25 0 3574.86094 0.11624 4428.6469 3.2647  2.8637 0.2122  32.7945 0.0996 -0.0121 0.0022   0.000000   0.000000  0
 24 3 3625.11396 0.36777   61.4833 3.2362  2.6602 0.5914  31.0331 0.1043 -0.0120 0.0026   0.400000   0.166082  0
 25 1 3640.36735 0.12847 2342.7120 3.2362  4.1538 0.2472  31.0331 0.1043 -0.0120 0.0026   0.400000   0.286750  0
 25 2 3703.69341 0.25011  437.3983 3.8992  5.1075 0.4929  27.6008 0.1413 -0.0064 0.0032   0.400000   1.103890  0
 26 0 3710.92410 0.20046 2134.4908 3.8992  4.4578 0.3707  27.6008 0.1413 -0.0064 0.0032   0.000000   0.000000  0
 25 3 3762.99307 0.76523   28.2532 3.8256  7.5472 1.4869  28.7853 0.1329 -0.0112 0.0042   0.400000   1.335929  1
 26 1 3776.85748 0.18838 1239.7810 3.8256  5.9379 0.3881  28.7853 0.1329 -0.0112 0.0042   0.400000   0.434911  0
