# n   l  Freq Error Height Error Width Error Noise Error Asym Error Split Split_error Mask
 11 2 1810.33602 0.03235  106.9506 1.2846  0.1320 0.0504  36.1232 0.0356 -0.0062 0.0429   0.392897   0.013007  0
 12 0 1822.16917 0.15870  145.7511 1.2846  0.4510 0.2396  36.1232 0.0356 -0.0062 0.0429   0.000000   0.000000  0
 11 3 1864.94965 0.05266   26.0221 1.2129  0.1083 0.0803  33.3651 0.0364 -0.0387 0.0140   0.330955   0.016720  1
 12 1 1885.07231 0.08014  348.1776 1.2129  0.3025 0.0752  33.3651 0.0364 -0.0387 0.0140   0.363226   0.035510  0
 12 2 1945.69991 0.08357   64.0016 1.2179  0.5163 0.1418  31.9032 0.0382 -0.0381 0.0156   0.434972   0.039164  0
 13 0 1957.49245 0.07428  571.9053 1.2179  0.3867 0.0982  31.9032 0.0382 -0.0381 0.0156   0.000000   0.000000  0
 12 3 2001.13651 0.03974   37.9955 0.8720  0.1246 0.0622  29.6224 0.0294 -0.0365 0.0084   0.348749   0.011398  0
 13 1 2020.79581 0.07282  439.8271 0.8720  0.4905 0.0936  29.6224 0.0294 -0.0365 0.0084   0.417877   0.046999  0
 13 2 2082.00229 0.04891  170.1395 0.9233  0.4210 0.1004  29.7807 0.0310 -0.0425 0.0076   0.374643   0.023780  0
 14 0 2093.55721 0.07372  492.1047 0.9233  0.6530 0.1292  29.7807 0.0310 -0.0425 0.0076   0.000000   0.000000  0
 13 3 2137.62657 0.09770   30.9386 0.9610  0.5606 0.1870  31.6700 0.0303 -0.0186 0.0093   0.278022   0.025981  1
 14 1 2156.62218 0.07654  611.9129 0.9610  0.6045 0.1039  31.6700 0.0303 -0.0186 0.0093   0.385765   0.053377  0
 14 2 2217.65834 0.06421  197.7760 1.0610  0.7169 0.1423  29.0327 0.0365 -0.0432 0.0061   0.500431   0.033236  0
 15 0 2228.80901 0.07561  663.0877 1.0610  0.8928 0.1451  29.0327 0.0365 -0.0432 0.0061   0.000000   0.000000  0
 14 3 2273.19630 0.15589   19.2876 0.9978  1.0059 0.4127  27.3294 0.0365 -0.0298 0.0051   0.340006   0.047459  1
 15 1 2292.04491 0.07405  918.4461 0.9978  0.8583 0.1064  27.3294 0.0365 -0.0298 0.0051   0.450746   0.067375  0
 15 2 2352.43936 0.07923  268.8634 1.1413  0.9567 0.1524  26.6702 0.0428 -0.0357 0.0046   0.290244   0.048046  0
 16 0 2362.75151 0.07311 1122.7919 1.1413  1.0849 0.1411  26.6702 0.0428 -0.0357 0.0046   0.000000   0.000000  0
 15 3 2407.78640 0.11597   39.3961 1.1678  0.9800 0.2792  29.5096 0.0396 -0.0222 0.0041   0.403246   0.036177  0
 16 1 2425.65770 0.07073 1405.5187 1.1678  0.9811 0.1137  29.5096 0.0396 -0.0222 0.0041   0.296277   0.100366  0
 16 2 2485.98679 0.07497  413.5793 1.3095  0.9654 0.1373  30.4694 0.0430 -0.0242 0.0040   0.369844   0.042039  0
 17 0 2496.18926 0.06997 2053.7543 1.3095  1.0159 0.1267  30.4694 0.0430 -0.0242 0.0040   0.000000   0.000000  0
 16 3 2541.94145 0.13618   49.9430 0.9150  1.4393 0.2843  28.9050 0.0317 -0.0161 0.0024   0.441405   0.042994  0
 17 1 2559.25174 0.06291 3068.1095 0.9150  0.8772 0.0902  28.9050 0.0317 -0.0161 0.0024   0.457264   0.066333  0
 17 2 2619.81970 0.07667  551.7754 0.9883  1.1793 0.1640  30.8350 0.0321 -0.0168 0.0024   0.409951   0.041726  0
 18 0 2629.87997 0.05980 4737.5302 0.9883  0.9177 0.1020  30.8350 0.0321 -0.0168 0.0024   0.000000   0.000000  0
 17 3 2676.46491 0.08344  113.0760 0.9941  1.0664 0.1922  28.7523 0.0346 -0.0139 0.0020   0.446456   0.026621  0
 18 1 2693.46692 0.06697 3734.9774 0.9941  1.0594 0.0993  28.7523 0.0346 -0.0139 0.0020   0.483453   0.079832  0
 18 2 2754.65908 0.07727 1125.5700 1.2746  1.0570 0.1239  35.6115 0.0358 -0.0100 0.0021   0.495693   0.040625  0
 19 0 2764.26895 0.05960 6708.1811 1.2746  0.9191 0.1071  35.6115 0.0358 -0.0100 0.0021   0.000000   0.000000  0
 18 3 2811.39385 0.08469  165.0121 1.2092  0.9995 0.1727  33.3021 0.0363 -0.0100 0.0016   0.424837   0.027458  0
 19 1 2828.40202 0.06309 6277.7179 1.2092  1.0483 0.0980  33.3021 0.0363 -0.0100 0.0016   0.364917   0.093528  0
 19 2 2889.76418 0.06854 2354.2594 1.4146  1.0133 0.1113  36.5697 0.0387 -0.0074 0.0014   0.350372   0.041738  0
 20 0 2899.28986 0.05459 12858.8891 1.4146  0.7919 0.1006  36.5697 0.0387 -0.0074 0.0014   0.000000   0.000000  0
 19 3 2947.34728 0.08702  251.9862 1.4164  1.0877 0.1714  35.9259 0.0394 -0.0098 0.0014   0.349277   0.030109  0
 20 1 2963.57285 0.06464 8076.2250 1.4164  1.0863 0.0958  35.9259 0.0394 -0.0098 0.0014   0.513562   0.078342  0
 20 2 3024.94292 0.06657 2624.9138 1.7934  0.9971 0.1240  44.9127 0.0399 -0.0091 0.0013   0.435840   0.038206  0
 21 0 3033.96787 0.05405 18571.5726 1.7934  0.8240 0.0942  44.9127 0.0399 -0.0091 0.0013   0.000000   0.000000  0
 20 3 3082.70965 0.08856  283.6912 1.6738  1.1744 0.1809  40.0452 0.0418 -0.0082 0.0012   0.379647   0.029176  0
 21 1 3098.38589 0.06381 11342.5098 1.6738  1.0879 0.0929  40.0452 0.0418 -0.0082 0.0012   0.585540   0.071018  0
 21 2 3160.03932 0.08170 2176.3700 2.0219  1.4004 0.1554  47.0395 0.0430 -0.0078 0.0015   0.463257   0.046969  0
 22 0 3168.79592 0.06660 12391.0720 2.0219  1.1521 0.1261  47.0395 0.0430 -0.0078 0.0015   0.000000   0.000000  0
 21 3 3217.96253 0.10996  232.2629 1.7827  1.5530 0.2360  39.1292 0.0456 -0.0106 0.0015   0.459483   0.038514  0
 22 1 3233.48350 0.07722 7175.1448 1.7827  1.5484 0.1244  39.1292 0.0456 -0.0106 0.0015   0.585638   0.107949  0
 22 2 3295.31347 0.10212 1549.3968 2.0611  1.8935 0.1904  47.9658 0.0430 -0.0050 0.0017   0.400000   0.078827  0
 23 0 3303.86756 0.07554 9857.7168 2.0611  1.3661 0.1440  47.9658 0.0430 -0.0050 0.0017   0.000000   0.000000  0
 22 3 3353.59077 0.15417  128.6661 1.9037  2.1107 0.3686  38.8367 0.0490 -0.0153 0.0018   0.360546   0.063204  0
 23 1 3368.78613 0.08775 5069.0393 1.9037  2.0471 0.1474  38.8367 0.0490 -0.0153 0.0018   0.268643   0.251107  0
 23 2 3431.04760 0.12841  954.6936 2.6394  2.5420 0.2676  34.9531 0.0755 -0.0101 0.0021   0.400000   0.119542  0
 24 0 3439.08379 0.11764 4172.3328 2.6394  2.7120 0.2303  34.9531 0.0755 -0.0101 0.0021   0.000000   0.000000  0
 23 3 3490.06714 0.24846   61.7151 2.2259  3.4576 0.5815  34.1187 0.0652 -0.0101 0.0022   0.400000   0.132675  0
 24 1 3504.45141 0.10471 3218.0988 2.2259  2.7150 0.2008  34.1187 0.0652 -0.0101 0.0022   0.400000   0.462604  0
 24 2 3567.24933 0.15891  543.6357 2.5823  3.3947 0.3609  40.1506 0.0643 -0.0110 0.0028   0.400000   0.166550  0
 25 0 3575.25109 0.14091 2510.5886 2.5823  3.1929 0.2830  40.1506 0.0643 -0.0110 0.0028   0.000000   0.000000  0
 24 3 3626.34913 0.32969   41.3201 2.4156  4.1632 0.8784  34.5444 0.0699 -0.0183 0.0038   0.400000   0.174348  0
 25 1 3640.84338 0.15523 1251.0208 2.4156  4.6526 0.3119  34.5444 0.0699 -0.0183 0.0038   0.400000   1.457088  0
 25 2 3703.85750 0.26303  253.9085 3.5440  5.5952 0.6380  35.7063 0.0993 -0.0183 0.0038   0.400000   0.321170  0
 26 0 3711.43029 0.19956 1522.1287 3.5440  4.8209 0.4122  35.7063 0.0993 -0.0183 0.0038   0.000000   0.000000  0
 25 3 3763.73694 0.60161   21.0922 2.6817  7.1474 1.5844  36.8991 0.0727 -0.0185 0.0046   0.400000   0.532911  1
 26 1 3777.46088 0.17377  988.4024 2.6817  5.1427 0.3522  36.8991 0.0727 -0.0185 0.0046   0.400000   1.112320  0
