# n   l  Freq Error Height Error Width Error Noise Error Asym Error Split Split_error Mask
 11 2 1809.95190 0.05483   58.6970 2.8672  0.1147 0.0851  67.4567 0.0425 -0.0866 0.0233   0.465382   0.018196  1
 12 0 1822.33955 0.18475  260.3217 2.8672  0.1679 0.1359  67.4567 0.0425 -0.0866 0.0233   0.000000   0.000000  1
 11 3 1865.34287 0.04879   73.3718 2.5140  0.0576 0.0654  71.0721 0.0354  0.0438 0.0296   0.423932   0.006523  0
 12 1 1885.06606 0.17469  160.8768 2.5140  0.3899 0.1796  71.0721 0.0354  0.0438 0.0296   0.479249   0.060438  0
 12 2 1945.85741 0.04196  148.6947 2.4586  0.1558 0.0723  72.8017 0.0338 -0.0017 0.0565   0.427215   0.015022  0
 13 0 1957.35402 0.14200  314.1091 2.4586  0.4042 0.1602  72.8017 0.0338 -0.0017 0.0565   0.000000   0.000000  0
 12 3 2001.23783 0.09834   14.5479 1.8167  0.1246 0.1649  70.7611 0.0257 -0.0189 0.0353   0.445258   0.015548  1
 13 1 2020.82721 0.12415  342.7362 1.8167  0.3630 0.1159  70.7611 0.0257 -0.0189 0.0353   0.372662   0.046266  0
 13 2 2082.22971 0.05812  136.1184 1.8437  0.3657 0.1099  67.6138 0.0273 -0.0195 0.0283   0.480673   0.028533  0
 14 0 2093.56356 0.12070  367.5321 1.8437  0.6870 0.1928  67.6138 0.0273 -0.0195 0.0283   0.000000   0.000000  0
 13 3 2137.75414 0.08707   33.8988 1.9278  0.3984 0.1760  66.1808 0.0291 -0.0010 0.0254   0.451024   0.034274  1
 14 1 2156.85116 0.13122  359.8138 1.9278  0.8630 0.1971  66.1808 0.0291 -0.0010 0.0254   0.408472   0.088990  0
 14 2 2217.50107 0.05957  225.6946 1.8585  0.4564 0.1080  64.8197 0.0287  0.0339 0.0138   0.398227   0.024937  0
 15 0 2228.65189 0.09878  585.0003 1.8585  0.7516 0.1786  64.8197 0.0287  0.0339 0.0138   0.000000   0.000000  0
 14 3 2273.74347 0.11269   29.4813 2.0285  0.5781 0.3114  66.1637 0.0307 -0.0348 0.0131   0.541162   0.029822  1
 15 1 2291.96926 0.10113  604.9289 2.0285  0.8290 0.1506  66.1637 0.0307 -0.0348 0.0131   0.478917   0.072514  0
 15 2 2352.37120 0.09525  217.0443 1.9677  0.8581 0.1867  64.6491 0.0304 -0.0157 0.0118   0.423020   0.044974  0
 16 0 2362.84121 0.07840 1692.8267 1.9677  0.6172 0.1128  64.6491 0.0304 -0.0157 0.0118   0.000000   0.000000  0
 15 3 2407.77641 0.09315   43.9629 2.1058  0.4596 0.1873  64.5519 0.0326 -0.0261 0.0069   0.397648   0.024800  1
 16 1 2425.68346 0.07744 1446.3685 2.1058  0.8569 0.1193  64.5519 0.0326 -0.0261 0.0069   0.361270   0.079916  0
 16 2 2486.13749 0.12325  226.9211 2.3041  1.3836 0.2344  59.6066 0.0387 -0.0287 0.0083   0.412319   0.069508  0
 17 0 2496.19417 0.08187 1567.3592 2.3041  0.9846 0.1447  59.6066 0.0387 -0.0287 0.0083   0.000000   0.000000  0
 16 3 2541.72863 0.21460   34.2938 1.7940  1.4049 0.4765  63.7577 0.0281 -0.0036 0.0058   0.460091   0.064952  1
 17 1 2559.19580 0.07831 2004.0785 1.7940  1.0153 0.1299  63.7577 0.0281 -0.0036 0.0058   0.286525   0.109887  0
 17 2 2619.76465 0.08421  553.2554 1.9290  1.0489 0.1577  66.3037 0.0291 -0.0028 0.0051   0.380427   0.045715  0
 18 0 2629.75520 0.06849 3597.4566 1.9290  0.8618 0.1276  66.3037 0.0291 -0.0028 0.0051   0.000000   0.000000  0
 17 3 2676.45011 0.13237   70.4372 1.9424  1.1275 0.3500  65.3141 0.0297 -0.0100 0.0035   0.322084   0.042897  0
 18 1 2693.40959 0.06959 3921.9456 1.9424  0.9670 0.1088  65.3141 0.0297 -0.0100 0.0035   0.373701   0.083870  0
 18 2 2754.54714 0.07181 1104.6854 2.0487  0.9096 0.1243  70.1053 0.0292 -0.0077 0.0034   0.434138   0.038949  0
 19 0 2764.24840 0.06212 7196.3080 2.0487  0.8246 0.1129  70.1053 0.0292 -0.0077 0.0034   0.000000   0.000000  0
 18 3 2811.70298 0.12484  104.7293 2.0400  1.1166 0.2627  68.6315 0.0297 -0.0125 0.0025   0.395133   0.038052  0
 19 1 2828.34702 0.06109 7542.3124 2.0400  0.7595 0.0799  68.6315 0.0297 -0.0125 0.0025   0.497636   0.054814  0
 19 2 2889.82135 0.06844 1745.4185 2.3368  0.8706 0.1123  69.8547 0.0335 -0.0091 0.0025   0.436861   0.034631  0
 20 0 2899.07269 0.06091 9683.4610 2.3368  0.8840 0.1124  69.8547 0.0335 -0.0091 0.0025   0.000000   0.000000  0
 19 3 2947.04212 0.06405  270.2736 2.1559  0.6632 0.1505  66.6836 0.0323 -0.0114 0.0019   0.407539   0.020439  0
 20 1 2963.42896 0.06256 9644.2449 2.1559  0.8954 0.0895  66.6836 0.0323 -0.0114 0.0019   0.461779   0.065715  0
 20 2 3024.88577 0.07012 2333.4479 2.4435  0.9809 0.1199  62.2942 0.0392 -0.0031 0.0019   0.422033   0.038100  0
 21 0 3033.83475 0.06450 11047.5675 2.4435  1.0800 0.1287  62.2942 0.0392 -0.0031 0.0019   0.000000   0.000000  0
 20 3 3082.55654 0.08022  317.3445 2.3871  0.9230 0.1690  67.8771 0.0352 -0.0076 0.0015   0.436435   0.025750  0
 21 1 3098.31746 0.05756 14801.4872 2.3871  0.8934 0.0919  67.8771 0.0352 -0.0076 0.0015   0.293116   0.088589  0
 21 2 3160.03280 0.08215 2163.9429 2.8421  1.2660 0.1495  69.5911 0.0408 -0.0109 0.0021   0.275512   0.067137  0
 22 0 3168.72274 0.07614 8452.3665 2.8421  1.3698 0.1470  69.5911 0.0408 -0.0109 0.0021   0.000000   0.000000  0
 21 3 3217.75074 0.15231  139.1892 2.6372  1.9057 0.3725  67.1362 0.0393 -0.0102 0.0023   0.385191   0.055776  0
 22 1 3233.27806 0.08390 6105.4340 2.6372  1.6596 0.1409  67.1362 0.0393 -0.0102 0.0023   0.504640   0.127495  0
 22 2 3295.12173 0.09739 1578.2340 3.0650  1.5429 0.1812  64.0889 0.0478 -0.0053 0.0021   0.400000   0.063108  0
 23 0 3303.64541 0.08452 8656.4203 3.0650  1.7023 0.1687  64.0889 0.0478 -0.0053 0.0021   0.000000   0.000000  0
 22 3 3353.96625 0.19302   90.5542 2.7669  2.0461 0.4872  70.3255 0.0393 -0.0080 0.0026   0.452600   0.066847  0
 23 1 3368.74821 0.09163 5043.8360 2.7669  2.0047 0.1698  70.3255 0.0393 -0.0080 0.0026   0.292509   0.253775  0
 23 2 3431.24908 0.14423  753.4350 3.4826  2.7917 0.3063  62.7579 0.0555 -0.0104 0.0031   0.400000   0.136876  0
 24 0 3439.13515 0.12536 3464.2065 3.4826  2.6552 0.2557  62.7579 0.0555 -0.0104 0.0031   0.000000   0.000000  0
 23 3 3490.23572 0.34685   45.8966 3.1396  4.2080 0.9568  69.3111 0.0453 -0.0075 0.0034   0.400000   0.231442  1
 24 1 3504.26382 0.11671 2737.9362 3.1396  2.9011 0.2310  69.3111 0.0453 -0.0075 0.0034   0.400000   0.254101  0
 24 2 3567.15697 0.17584  466.1079 3.9816  3.6505 0.4300  66.8273 0.0596 -0.0111 0.0036   0.400000   0.191482  0
 25 0 3574.93322 0.13116 3045.0007 3.9816  2.7425 0.2766  66.8273 0.0596 -0.0111 0.0036   0.000000   0.000000  0
 24 3 3626.20485 0.54583   23.1550 3.5982  4.7818 1.5425  70.4748 0.0511 -0.0155 0.0050   0.400000   0.332534  1
 25 1 3640.42175 0.15503 1424.4783 3.5982  4.1188 0.3125  70.4748 0.0511 -0.0155 0.0050   0.400000   0.615691  0
 25 2 3704.16120 0.26119  272.5747 6.2326  5.5656 0.7148  60.4795 0.1031 -0.0245 0.0054   0.400000   0.282648  0
 26 0 3711.89587 0.24660 1039.9382 6.2326  5.5446 0.6087  60.4795 0.1031 -0.0245 0.0054   0.000000   0.000000  0
 25 3 3777.86078 0.39851  175.4369 5.7493  2.4669 0.8409  55.3113 0.1039 -0.0196 0.0068   0.400000   0.138196  0
 26 1 3776.16463 0.45481  407.6297 5.7493  9.8419 1.5941  55.3113 0.1039 -0.0196 0.0068   0.400000   1.368003  0
